##################
### TECH COSTS ###
##################
#If you change any of these, use replace in files so the values are the same across all files

@tier1cost1 = 360
@tier1cost2 = 480
@tier1cost3 = 600
@tier1cost4 = 720

@tier2cost1 = 1000
@tier2cost2 = 1400
@tier2cost3 = 1800
@tier2cost4 = 2200

@tier3cost1 = 3000
@tier3cost2 = 4000
@tier3cost3 = 5000
@tier3cost4 = 6000

@tier4cost1 = 10000

####################
### TECH WEIGHTS ###
####################

@tier1weight1 = 100
@tier1weight2 = 95
@tier1weight3 = 90
@tier1weight4 = 85

@tier2weight1 = 75
@tier2weight2 = 70
@tier2weight3 = 65
@tier2weight4 = 60

@tier3weight1 = 50
@tier3weight2 = 45
@tier3weight3 = 40
@tier3weight4 = 35

@tier4weight1 = 30

##################

tech_enhancedrobomodding_robomodding = {
	cost = 0
	area = engineering
	#start_tech = yes
	category = { industry }
	tier = 0
	weight = 0
	
	feature_flags = {
		modify_robots
	}

	weight_modifier = {
		modifier = {
			factor = 0
		}
	}

	ai_weight = {
		factor = 0
	}
}

tech_enhancedrobomodding_tier2 = {
	cost = 0
	area = engineering
	start_tech = no
	category = { industry }
	tier = 0
	weight = 0
	
	weight_modifier = {
		modifier = {
			factor = 0
		}
	}

	ai_weight = {
		factor = 0
	}
}

tech_enhancedrobomodding_tier3 = {
	cost = 0
	area = engineering
	start_tech = no
	category = { industry }
	tier = 0
	weight = 0
	
	weight_modifier = {
		modifier = {
			factor = 0
		}
	}

	ai_weight = {
		factor = 0
	}
}

#organic emotion tech
tech_enhancedrobomodding_organic_studies = {
	cost = @tier2cost3
	area = society
	start_tech = no
	category = { biology }
	tier = 2
	weight = @tier2weight3
	
	weight_modifier = {
		factor = 1.5
		modifier = {
			factor = 0
			NOT = { has_authority = auth_machine_intelligence }
		}
		modifier = {
			factor = 1.25
			research_leader = {
				area = society
				has_trait = "leader_trait_expertise_biology"
			}
		}
	}

	ai_weight = {
		modifier = {
			factor = 1.25
			research_leader = {
				area = society
				has_trait = "leader_trait_expertise_biology"
			}
		}
	}
}

#organic understanding & organic logic tech
tech_enhancedrobomodding_organic_understanding = {
	cost = @tier3cost2
	area = society
	start_tech = no
	category = { biology }
	tier = 3
	weight = @tier3weight2
	is_rare = yes

	prerequisities = { tech_enhancedrobomodding_organic_studies }
	
	weight_modifier = {
		factor = 1.5
		modifier = {
			factor = 0
			NOT = { has_authority = auth_machine_intelligence }
		}
		modifier = {
			factor = 1.25
			research_leader = {
				area = society
				has_trait = "leader_trait_expertise_biology"
			}
		}
	}

	ai_weight = {
		modifier = {
			factor = 1.25
			research_leader = {
				area = society
				has_trait = "leader_trait_expertise_biology"
			}
		}
	}
}

#databank link tech
tech_enhancedrobomodding_databanks = {
	cost = @tier2cost4
	area = engineering
	start_tech = no
	category = { industry }
	prerequisites = { tech_enhancedrobomodding_tier2 }
	tier = 2
	weight = @tier2weight4
	
	weight_modifier = {
		factor = 1.5
		modifier = {
			factor = 1.25
			research_leader = {
				area = engineering
				has_trait = "leader_trait_expertise_industry"
			}
		}
	}

	ai_weight = {
		modifier = {
			factor = 1.25
			research_leader = {
				area = engineering
				has_trait = "leader_trait_expertise_industry"
			}
		}
	}
}

tech_enhancedrobomodding_matrioshka_brain_uplink = {
	cost = @tier4cost1
	area = physics
	start_tech = no
	category = { computing }
	prerequisites = { }
	weight = 0
	tier = 0
}

tech_enhancedrobomodding_rogue_servitor_food = {
	cost = @tier2cost1
	area = society
	start_tech = no
	category = { biology }
	tier = 2
	weight = @tier2weight1

	prerequisities = { tech_enhancedrobomodding_tier2 }
	
	weight_modifier = {
		factor = 1.5
		modifier = {
			factor = 0
			NOT = { has_civic = civic_machine_servitor }
		}
		modifier = {
			factor = 1.25
			research_leader = {
				area = society
				has_trait = "leader_trait_expertise_biology"
			}
		}
	}

	ai_weight = {
		modifier = {
			factor = 1.25
			research_leader = {
				area = society
				has_trait = "leader_trait_expertise_biology"
			}
		}
	}
}

tech_enhancedrobomodding_engineering = {
	cost = @tier3cost1
	area = engineering
	start_tech = no
	category = { computing }
	prerequisites = { }
	weight = 0
	tier = 0
}

tech_enhancedrobomodding_physics = {
	cost = @tier3cost1
	area = physics
	start_tech = no
	category = { computing }
	prerequisites = { }
	weight = 0
	tier = 0
}

tech_enhancedrobomodding_society = {
	cost = @tier3cost1
	area = society
	start_tech = no
	category = { computing }
	prerequisites = { }
	weight = 0
	tier = 0
}

tech_enhancedrobomodding_neutronium_applications = {
	cost = @tier4cost1
	area = engineering
	start_tech = no
	category = { materials }
	prerequisites = { }
	weight = 0
	tier = 0
}