############################
#
# Crisis Strength Settings Unbidden
#
# Written by Waesche
#
############################


namespace = crisis

### EXTRADIMENSIONALS

# Extradimensional Invasion Begins (HIDDEN)
country_event = {
	id = crisis.1000
	hide_window = yes
	fire_only_once = yes
	is_triggered_only = yes
	
	immediate = {
		set_crisis_sound = extradimensional_crisis_ambient_stage_1
		set_crisis_stage_1 = yes		
		create_country = {
			name = "NAME_Portal_Holder_1"
			type = portal_holder
			flag = {
				icon= {
					category = "special"
					file = "extradimensional_01.dds"
				}
				background= {
					category = "backgrounds"
					file = "circle.dds"
				}
				colors={
					"black"
					"black"
					"null"
					"null"
				}
			}
			effect = {
				save_global_event_target_as = portal_holder_1
				every_playable_country = {
					establish_communications_no_message = event_target:portal_holder_1
				}
			}
		}
		awaken_guardians_of_the_galaxy = yes
	
		endgame_telemetry = extradimensional
		set_global_flag = extradimensional_invasion_happened
		set_global_flag = galactic_crisis_happened
		###spawn_location###
		#				   #
		#set Unbidden portal system
		
		if = {
			limit = {
				has_global_flag = spawn_location_outside # not within player borders
			}
			random_system = {
				limit = {
					NOT = {
						any_country = {
							OR = {
								is_country_type = fallen_empire
								is_country_type = awakened_fallen_empire
								AND = {
									is_country_type = default
									is_ai = no
								}
							}
							any_system_within_border = {
								is_same_value = prevprev #changed
							}#prev = any_country prevprev random_system
						}
					}
				}
				#log = "outside"
				save_event_target_as = spawn_location
			}
		
		}
		
		if = {
			limit = {
					has_global_flag = spawn_location_outside_far_away
			}
			random_system = {
				limit = {
					any_country = {
						AND = {
							is_ai = no
							PREV={#random_system scope
								NOT={
									distance_to_empire = {
									who = PREV #any_country scope #this is the other PREV scope
									distance = 250
									}
								}	
							}
						}	
						NOT = {
							any_country = {
								OR = {
									is_country_type = fallen_empire
									is_country_type = awakened_fallen_empire
								}
								any_system_within_border = {
									is_same_value = prevprevprev #changed
								}
							}
						}
					}
				}
				save_event_target_as = spawn_location
				#log = "far_away"
			}
			
		}	
		if = {
			limit = {
				NOT = { 
					exists = event_target:spawn_location #default and fallback
				}
			}
			random_system = {
				limit = {
					NOT = {
						any_country = {
							OR = {
								is_country_type = fallen_empire
								is_country_type = awakened_fallen_empire
							}
							any_system_within_border = {
								is_same_value = prevprev #changed
							}#prev = any_country prevprev random_system
						}
					}
				}
				save_event_target_as = spawn_location
				#log="default spawn location"
			}
		
		}
		#				   #
		####################
			
		event_target:spawn_location = {
			set_star_flag = extradimensional_origin_system
			save_event_target_as = extradimensional_system
			random_system_planet = {
				create_species = {
					name = "NAME_Unbidden"
					class = EXD
					portrait = exd1
					traits = random
				}
				create_country = {
					name = "NAME_Unbidden"
					type = "extradimensional"
					species = last_created
					name_list = "Extradimensional"
					effect = { set_country_flag = unbidden }
					flag = {
						icon= {
							category = "special"
							file = "extradimensional_01.dds"
						}
						background= {
							category = "backgrounds"
							file = "circle.dds"
						}
						colors={
							"indigo"
							"blue"
							"null"
							"null"
						}
					}
				}
				last_created_species = { save_event_target_as = extradimensional_species }
				last_created_country = {
					add_modifier = {
						modifier = ed_anchor_buildspeed
						days = -1
					}
					save_event_target_as = extradimensionals
					create_ship_design = { design = "NAME_Void_Shaper" }
					add_ship_design = last_created_design
					create_ship_design = { design = "NAME_Phantasm_Alpha" }
					add_ship_design = last_created_design
					create_ship_design = { design = "NAME_Whisper_Alpha" }
					add_ship_design = last_created_design
					create_ship_design = { design = "NAME_Unbidden_Anchor" }
					add_ship_design = last_created_design
					save_event_target_as = extradimensionals
					create_fleet = {
						name = "NAME_Dimensional_Portal"
						effect = {
							set_owner = PREV
							create_ship = {
								name = random
								design = "NAME_Unbidden_Portal"
								graphical_culture = "extra_dimensional_01"
								effect = { set_ship_flag = unbidden_portal }
							}
							set_location = {
								target = PREVPREV
								distance = 40
								angle = random
							}
							save_event_target_as = dimensional_portal
							switch = {
								trigger = has_global_flag
								spawn_time_0p75x = {
									fleet_event = { id = crisis.1003 days = 12 } # Second Fleet Arrives
									fleet_event = { id = crisis.1003 days = 23 } # Third Fleet Arrives
									fleet_event = { id = crisis.1003 days = 42 } # Fourth Fleet Arrives
									fleet_event = { id = crisis.1003 days = 68 } # Fifth Fleet Arrives
									fleet_event = { id = crisis.1003 days = 135 } # Sixth Fleet Arrives
									fleet_event = { id = crisis.1003 days = 199 } # Seventh Fleet Arrives
									fleet_event = { id = crisis.1003 days = 255 } # Eight Fleet Arrives
									fleet_event = { id = crisis.1003 days = 319 } # Ninth Fleet Arrives
									fleet_event = { id = crisis.1003 days = 413 } # Tenth Fleet Arrives
									fleet_event = { id = crisis.1006 days = 15 } # First Constructor Arrives
									fleet_event = { id = crisis.1006 days = 19 } # Second Constructor Arrives
									fleet_event = { id = crisis.1006 days = 120 } # Third Constructor Arrives
									fleet_event = { id = crisis.1006 days = 233 } # Fourth Constructor Arrives
									event_target:extradimensionals = { country_event = { id = crisis.1260 days = 263 } } # Spawn Cycle starts
								}
								spawn_time_0p5x = {
									fleet_event = { id = crisis.1003 days = 8 } # Second Fleet Arrives
									fleet_event = { id = crisis.1003 days = 15 } # Third Fleet Arrives
									fleet_event = { id = crisis.1003 days = 18 } # Fourth Fleet Arrives
									fleet_event = { id = crisis.1003 days = 45 } # Fifth Fleet Arrives
									fleet_event = { id = crisis.1003 days = 90 } # Sixth Fleet Arrives
									fleet_event = { id = crisis.1003 days = 133 } # Seventh Fleet Arrives
									fleet_event = { id = crisis.1003 days = 170 } # Eight Fleet Arrives
									fleet_event = { id = crisis.1003 days = 213 } # Ninth Fleet Arrives
									fleet_event = { id = crisis.1003 days = 275 } # Tenth Fleet Arrives
									fleet_event = { id = crisis.1006 days = 10 } # First Constructor Arrives
									fleet_event = { id = crisis.1006 days = 13 } # Second Constructor Arrives
									fleet_event = { id = crisis.1006 days = 80 } # Third Constructor Arrives
									fleet_event = { id = crisis.1006 days = 155 } # Fourth Constructor Arrives
									event_target:extradimensionals = { country_event = { id = crisis.1260 days = 175 } } # Spawn Cycle starts
								}
								spawn_time_1p5x = {
									fleet_event = { id = crisis.1003 days = 23 } # Second Fleet Arrives
									fleet_event = { id = crisis.1003 days = 45 } # Third Fleet Arrives
									fleet_event = { id = crisis.1003 days = 83 } # Fourth Fleet Arrives
									fleet_event = { id = crisis.1003 days = 135 } # Fifth Fleet Arrives
									fleet_event = { id = crisis.1003 days = 270 } # Sixth Fleet Arrives
									fleet_event = { id = crisis.1003 days = 398 } # Seventh Fleet Arrives
									fleet_event = { id = crisis.1003 days = 510 } # Eight Fleet Arrives
									fleet_event = { id = crisis.1003 days = 638 } # Ninth Fleet Arrives
									fleet_event = { id = crisis.1003 days = 825 } # Tenth Fleet Arrives
									fleet_event = { id = crisis.1006 days = 30 } # First Constructor Arrives
									fleet_event = { id = crisis.1006 days = 38 } # Second Constructor Arrives
									fleet_event = { id = crisis.1006 days = 240 } # Third Constructor Arrives
									fleet_event = { id = crisis.1006 days = 465 } # Fourth Constructor Arrives
									event_target:extradimensionals = { country_event = { id = crisis.1260 days = 525 } } # Spawn Cycle starts
								}
							}
							if = {
								limit = {
									NOT = {
										has_global_flag = spawn_time_0p75x
										has_global_flag = spawn_time_0p5x
										has_global_flag = spawn_time_1p5x
									}
								}
								fleet_event = { id = crisis.1003 days = 15 } # Second Fleet Arrives
								fleet_event = { id = crisis.1003 days = 30 } # Third Fleet Arrives
								fleet_event = { id = crisis.1003 days = 55 } # Fourth Fleet Arrives
								fleet_event = { id = crisis.1003 days = 90 } # Fifth Fleet Arrives
								fleet_event = { id = crisis.1003 days = 180 } # Sixth Fleet Arrives
								fleet_event = { id = crisis.1003 days = 265 } # Seventh Fleet Arrives
								fleet_event = { id = crisis.1003 days = 340 } # Eight Fleet Arrives
								fleet_event = { id = crisis.1003 days = 425 } # Ninth Fleet Arrives
								fleet_event = { id = crisis.1003 days = 550 } # Tenth Fleet Arrives
								fleet_event = { id = crisis.1006 days = 20 } # First Constructor Arrives
								fleet_event = { id = crisis.1006 days = 25 } # Second Constructor Arrives
								fleet_event = { id = crisis.1006 days = 160 } # Third Constructor Arrives
								fleet_event = { id = crisis.1006 days = 310 } # Fourth Constructor Arrives
								event_target:extradimensionals = { country_event = { id = crisis.1260 days = 350 } } # Spawn Cycle starts
								#set_owner = event_target:portal_holder_1 #when first anchor built
							}
						}
					}
					create_leader = {
						type = admiral
						species = event_target:extradimensional_species
						name = random
						skill = 500
						traits = {
							trait = leader_trait_ethereal
						}
					}
					spawn_portal_defend_fleet = yes
				}
			}
		}
		every_country = {
			limit = {
				OR = {
					is_country_type = default
					is_country_type = fallen_empire
					is_country_type = awakened_fallen_empire
				}
				intel_level = { 
					level = high
					system = event_target:extradimensional_system
				}
			}
			country_event = { id = crisis.1007 }
		}
		every_country = {
			limit = {
				OR = {
					is_country_type = default
					is_country_type = fallen_empire
					is_country_type = awakened_fallen_empire
				}
				NOT = {
					intel_level = { 
						level = high
						system = event_target:extradimensional_system
					}
				}
			}
			country_event = { id = crisis.1008 }
		}	
	}
}

# Fleet Reinforcements
fleet_event = {
	id = crisis.1003
	hide_window = yes
	
	is_triggered_only = yes
	
	immediate = {
		event_target:extradimensionals = {
			random_list = {
				25 = {
					create_leader = {
						type = admiral
						species = event_target:extradimensional_species
						name = random
						skill = 1000
						traits = {
							trait = leader_trait_ethereal
						}
					}
				}
				25 = {
					create_leader = {
						type = admiral
						species = event_target:extradimensional_species
						name = random
						skill = 1000
						traits = {
							trait = leader_trait_dimensional_stutter
						}
					}
				}
				50 = {
					create_leader = {
						type = admiral
						species = event_target:extradimensional_species
						name = random
						skill = 500
					}
				}
			}
			spawn_big_unbidden_fleet = yes
		}
	}
}

# Colony Bombarded
planet_event = {
	id = crisis.1011
	title = "crisis.1011.name"
	desc = "crisis.1011.desc"
	picture = GFX_evt_city_ruins
	show_sound = event_ghost_town
	
	is_triggered_only = yes
	
	trigger = {
		FROM = {
			OR = {
				is_country_type = extradimensional 
				is_country_type = extradimensional_2
				is_country_type = extradimensional_3
			}
		}
	}
	
	immediate = {
		add_threat = {
			who = from
			amount = 1 # scales to pops
		}
		while = {
			limit = {
				any_tile = { has_blocker = tb_tribal_settlement }
			}
			random_tile = {
				limit = { has_blocker = tb_tribal_settlement }
				remove_blocker = yes
			}
		}
		owner = {#save a reference to the owner of the planet
			save_event_target_as = owner_graphical_culture
		}
		#destroy_colony = { keep_buildings = no }
		if = {
			limit = { 
				is_planet_class = pc_ai
				NOT = { has_planet_flag = machine_lair }
			}
			planet_event = { id = crisis.2040 }
			break = yes
		}
		if = {
			limit = { 
				is_planet_class = pc_ai
				has_planet_flag = machine_lair
			}
			planet_event = { id = crisis.2043 }
			break = yes
		}
		if = {
			limit = { NOT= { has_global_flag = pre16bombardment } }
			destroy_colony = { keep_buildings = no }
			if = {
				limit = {
					NOR = {
						is_planet_class = pc_ringworld_habitable
						is_planet_class = pc_ringworld_habitable_machine
						is_planet_class = pc_habitat
						is_planet_class = pc_maw_habitat
						has_global_flag = bombardment_only_habitat
					}
				}
				random_list = {
					50 = { change_pc = pc_barren }
					50 = { change_pc = pc_barren_cold }
				}
				add_modifier = {
					modifier = "terraforming_candidate"
					days = -1
				}
				planet_event = { id = pm_crisis.10 } # Guili's Modifiers Removal
				else = {
					if = {
						limit = { 
							OR = {
								is_planet_class = pc_ringworld_habitable 
								is_planet_class = pc_ringworld_habitable_machine
							}
						}
						change_pc = pc_ringworld_habitable_damaged

						Solar_System = {
							spawn_megastructure = {
								name = "Ruined Ring Section"
								type = "Ufix1"
								orbit_angle = 0
								orbit_distance = 0
								owner = event_target:owner_graphical_culture #you must save a reference to the owner of the 
								graphical_culture = event_target:owner_graphical_culture  # planet before you destroy the colony 
								location = prev
							}
						}
					}
					if = {
						limit = { 
							OR = {
								is_planet_class = pc_habitat 
								is_planet_class = pc_maw_habitat
							}
						}
						remove_planet = yes
					}
				}
			}
			else = {
				destroy_colony = { keep_buildings = yes }
			}
		}
		if = {
			limit = { FROM = { is_country_type = extradimensional } }
			every_country = {
				limit = { has_event_chain = "extradimensional_invasion_chain" }
				add_event_chain_counter = { 
					event_chain = "extradimensional_invasion_chain" 
					counter = "extradimensional_planets_1" 
					amount = 1 
				}
			}
			break = yes
		}
		if = {
			limit = { FROM = { is_country_type = extradimensional_2 } }
			every_country = {
				limit = { has_event_chain = "extradimensional_invasion_chain_2" }
				add_event_chain_counter = { 
					event_chain = "extradimensional_invasion_chain_2" 
					counter = "extradimensional_planets_2" 
					amount = 1 
				}
			}
			break = yes
		}
		if = {
			limit = { FROM = { is_country_type = extradimensional_3 } }
			every_country = {
				limit = { has_event_chain = "extradimensional_invasion_chain_3" }
				add_event_chain_counter = { 
					event_chain = "extradimensional_invasion_chain_3" 
					counter = "extradimensional_planets_3" 
					amount = 1 
				}
			}
			break = yes
		}
	}
	
	option = {
		name = crisis.1011.a
	}
}


### Second Portal

# Second Portal Appears (HIDDEN)
country_event = {
	id = crisis.1100
	hide_window = yes
	fire_only_once = yes
	
	trigger = {
		is_country_type = extradimensional
		NOT = { has_global_flag = extradimensional_second_portal }
		galaxy_percentage > 0.15
	}
	
	mean_time_to_happen = {
		months = 12
	}
	
	immediate = {
		set_crisis_sound = extradimensional_crisis_ambient_stage_3
		set_crisis_stage_3 = yes			
		#moved to #2
		random_system_within_border = {
			limit = { 
				NOT = { has_star_flag = extradimensional_origin_system }

			}
			set_global_flag = extradimensional_second_portal#moved #2 #set flag only if portal can spawn 
			set_star_flag = extradimensional_second_portal_system
			save_event_target_as = second_portal_system
			random_system_planet = {
				create_species = {
					name = "NAME_Aberrant"
					class = EXD
					portrait = exd2
					traits = random
				}
				create_country = {
					name = "NAME_Aberrant"
					type = "extradimensional_2"
					species = last_created
					name_list = "Extradimensional"
					effect = { set_country_flag = aberrant }
					flag = {
						icon= {
							category = "special"
							file = "extradimensional_02.dds"
						}
						background= {
							category = "backgrounds"
							file = "triangle_split.dds"
						}
						colors={
							"brown"
							"orange"
							"null"
							"null"
						}
					}
				}
				last_created_species = { save_event_target_as = extradimensional_hunters_species }
				last_created_country = {
					set_graphical_culture = extra_dimensional_02
					add_modifier = {
						modifier = ed_anchor_buildspeed
						days = -1
					}
					save_event_target_as = extradimensional_hunters
					create_ship_design = { design = "NAME_Void_Former" }
					add_ship_design = last_created_design
					create_ship_design = { design = "NAME_Phantasm_Beta" }
					add_ship_design = last_created_design
					create_ship_design = { design = "NAME_Whisper_Beta" }
					add_ship_design = last_created_design
					create_ship_design = { design = "NAME_Aberrant_Anchor" }
					add_ship_design = last_created_design
					create_fleet = {
						name = "NAME_Dimensional_Portal"
						effect = {
							set_owner = PREV
							create_ship = {
								name = random
								design = "NAME_Aberrant_Portal"
								graphical_culture = "extra_dimensional_02"
								effect = { set_ship_flag = aberrant_portal }
							}
							set_location = {
								target = PREVPREV
								distance = 40
								angle = random
							}
							save_event_target_as = second_portal	
							switch = {
								trigger = has_global_flag
								spawn_time_0p75x = {
									fleet_event = { id = crisis.1103 days = 1 } # Fleet Arrives
									fleet_event = { id = crisis.1103 days = 4 } # Fleet Arrives
									fleet_event = { id = crisis.1103 days = 12 } # Fleet Arrives
									fleet_event = { id = crisis.1103 days = 23 } # Fleet Arrives
									fleet_event = { id = crisis.1103 days = 34 } # Fleet Arrives
									fleet_event = { id = crisis.1103 days = 45 } # Fleet Arrives
									fleet_event = { id = crisis.1103 days = 113 } # Fleet Arrives
									fleet_event = { id = crisis.1103 days = 263 } # Fleet Arrives
									fleet_event = { id = crisis.1106 days = 15 } # Constructor Arrives
									fleet_event = { id = crisis.1106 days = 19 } # Constructor Arrives
									fleet_event = { id = crisis.1106 days = 68 } # Constructor Arrives
									fleet_event = { id = crisis.1106 days = 158 } # Constructor Arrives
									event_target:extradimensional_hunters = { country_event = { id = crisis.1260 days = 413 } } # Spawn Cycle starts
								}
								spawn_time_0p5x = {
									fleet_event = { id = crisis.1103 days = 1 } # Fleet Arrives
									fleet_event = { id = crisis.1103 days = 3 } # Fleet Arrives
									fleet_event = { id = crisis.1103 days = 8 } # Fleet Arrives
									fleet_event = { id = crisis.1103 days = 15 } # Fleet Arrives
									fleet_event = { id = crisis.1103 days = 23 } # Fleet Arrives
									fleet_event = { id = crisis.1103 days = 30 } # Fleet Arrives
									fleet_event = { id = crisis.1103 days = 75 } # Fleet Arrives
									fleet_event = { id = crisis.1103 days = 175 } # Fleet Arrives
									fleet_event = { id = crisis.1106 days = 10 } # Constructor Arrives
									fleet_event = { id = crisis.1106 days = 13 } # Constructor Arrives
									fleet_event = { id = crisis.1106 days = 45 } # Constructor Arrives
									fleet_event = { id = crisis.1106 days = 105 } # Constructor Arrives
									event_target:extradimensional_hunters = { country_event = { id = crisis.1260 days = 275 } } # Spawn Cycle starts
								}
								spawn_time_1p5x = {
									fleet_event = { id = crisis.1103 days = 2 } # Fleet Arrives
									fleet_event = { id = crisis.1103 days = 8 } # Fleet Arrives
									fleet_event = { id = crisis.1103 days = 23 } # Fleet Arrives
									fleet_event = { id = crisis.1103 days = 45 } # Fleet Arrives
									fleet_event = { id = crisis.1103 days = 68 } # Fleet Arrives
									fleet_event = { id = crisis.1103 days = 90 } # Fleet Arrives
									fleet_event = { id = crisis.1103 days = 225 } # Fleet Arrives
									fleet_event = { id = crisis.1103 days = 525 } # Fleet Arrives
									fleet_event = { id = crisis.1106 days = 30 } # Constructor Arrives
									fleet_event = { id = crisis.1106 days = 38 } # Constructor Arrives
									fleet_event = { id = crisis.1106 days = 135 } # Constructor Arrives
									fleet_event = { id = crisis.1106 days = 315 } # Constructor Arrives
									event_target:extradimensional_hunters = { country_event = { id = crisis.1260 days = 825 } } # Spawn Cycle starts
								}
							}
							if = {
								limit = {
									NOT = {
										has_global_flag = spawn_time_0p75x
										has_global_flag = spawn_time_0p5x
										has_global_flag = spawn_time_1p5x
									}
								}
								fleet_event = { id = crisis.1103 days = 1 } # Fleet Arrives
								fleet_event = { id = crisis.1103 days = 5 } # Fleet Arrives
								fleet_event = { id = crisis.1103 days = 15 } # Fleet Arrives
								fleet_event = { id = crisis.1103 days = 30 } # Fleet Arrives
								fleet_event = { id = crisis.1103 days = 45 } # Fleet Arrives
								fleet_event = { id = crisis.1103 days = 60 } # Fleet Arrives
								fleet_event = { id = crisis.1103 days = 150 } # Fleet Arrives
								fleet_event = { id = crisis.1103 days = 350 } # Fleet Arrives
								fleet_event = { id = crisis.1106 days = 20 } # Constructor Arrives
								fleet_event = { id = crisis.1106 days = 25 } # Constructor Arrives
								fleet_event = { id = crisis.1106 days = 90 } # Constructor Arrives
								fleet_event = { id = crisis.1106 days = 210 } # Constructor Arrives
								event_target:extradimensional_hunters = { country_event = { id = crisis.1260 days = 550 } } # Spawn Cycle starts
							}
						}
					}
					random_list = {
						25 = {
							create_leader = {
								type = admiral
								species = event_target:extradimensional_hunters_species
								name = random
								skill = 1000
								traits = {
									trait = leader_trait_ethereal
								}
							}
						}
						25 = {
							create_leader = {
								type = admiral
								species = event_target:extradimensional_hunters_species
								name = random
								skill = 1000
								traits = {
									trait = leader_trait_dimensional_stutter
								}
							}
						}
						50 = {
							create_leader = {
								type = admiral
								species = event_target:extradimensional_hunters_species
								name = random
								skill = 500
							}
						}
					}
					spawn_portal_defend_fleet = yes
				}
			}
		}
		every_country = {
			limit = {
				OR = {
					is_country_type = default
					is_country_type = fallen_empire
					is_country_type = awakened_fallen_empire
				}
			}
			country_event = { id = crisis.1110 days = 1 }
		}
		random_country = {
			limit = { is_country_type = extradimensional_2 }
			establish_communications_no_message = root
		}
	}
}

# Fleet Reinforcements
fleet_event = {
	id = crisis.1103
	hide_window = yes
	
	is_triggered_only = yes
	
	immediate = {
		event_target:extradimensional_hunters = {
			random_list = {
				25 = {
					create_leader = {
						type = admiral
						species = event_target:extradimensional_hunters_species
						name = random
						skill = 1000
						traits = {
							trait = leader_trait_ethereal
						}
					}
				}
				25 = {
					create_leader = {
						type = admiral
						species = event_target:extradimensional_hunters_species
						name = random
						skill = 1000
						traits = {
							trait = leader_trait_dimensional_stutter
						}
					}
				}
				50 = {
					create_leader = {
						type = admiral
						species = event_target:extradimensional_hunters_species
						name = random
						skill = 500
					}
				}
			}
			spawn_big_unbidden_fleet = yes
		}
	}
}


### Third Portal

# Third Portal Appears (HIDDEN)
country_event = {
	id = crisis.1200
	hide_window = yes
	fire_only_once = yes
	
	trigger = {
		has_global_flag = extradimensionals_fight
		NOT = { has_global_flag = extradimensional_third_portal }
		is_country_type = extradimensional_2
		any_country = { is_country_type = extradimensional }
	}
	
	mean_time_to_happen = {
		months = 40
	}
	
	immediate = {
		#moved to #12
		random_country = {
			limit = { is_country_type = extradimensional }
			random_system_within_border = {
				limit = { 
					NOT = { 
						has_star_flag = extradimensional_origin_system 
						has_star_flag = extradimensional_second_portal_system
					}
				}
				set_global_flag = extradimensional_third_portal#moved #12 #set flag only if portal can spawn 
				set_star_flag = extradimensional_third_portal_system
				save_event_target_as = third_portal_system
				random_system_planet = {
					create_species = {
						name = "NAME_Vehement"
						class = EXD
						portrait = exd3
						traits = random
					}
					create_country = {
						name = "NAME_Vehement"
						type = "extradimensional_3"
						species = last_created
						name_list = "Extradimensional"
						effect = { set_country_flag = vehement }
						flag = {
							icon= {
								category = "special"
								file = "extradimensional_03.dds"
							}
							background= {
								category = "backgrounds"
								file = "stripe.dds"
							}
							colors={
								"green"
								"teal"
								"null"
								"null"
							}
						}
					}
					last_created_species = { save_event_target_as = extradimensional_trespassers_species }
					last_created_country = {
						set_graphical_culture = extra_dimensional_03
						add_modifier = {
							modifier = ed_anchor_buildspeed
							days = -1
						}
						save_event_target_as = extradimensional_trespassers
						create_ship_design = { design = "NAME_Void_Weaver" }
						add_ship_design = last_created_design
						create_ship_design = { design = "NAME_Phantasm_Gamma" }
						add_ship_design = last_created_design
						create_ship_design = { design = "NAME_Whisper_Gamma" }
						add_ship_design = last_created_design
						create_ship_design = { design = "NAME_Vehement_Anchor" }
						add_ship_design = last_created_design
						create_fleet = {
							name = "NAME_Dimensional_Portal"
							effect = {
								set_owner = PREV
								create_ship = {
									name = random
									design = "NAME_Vehement_Portal"
									graphical_culture = "extra_dimensional_03"
									effect = { set_ship_flag = vehement_portal }
								}
								set_location = {
									target = PREVPREV
									distance = 40
									angle = random
								}
								save_event_target_as = third_portal
								
								switch = {
								trigger = has_global_flag
								spawn_time_0p75x = {
									fleet_event = { id = crisis.1203 days = 1 } # Fleet Arrives
									fleet_event = { id = crisis.1203 days = 4 } # Fleet Arrives
									fleet_event = { id = crisis.1203 days = 12 } # Fleet Arrives
									fleet_event = { id = crisis.1203 days = 23 } # Fleet Arrives
									fleet_event = { id = crisis.1203 days = 34 } # Fleet Arrives
									fleet_event = { id = crisis.1203 days = 45 } # Fleet Arrives
									fleet_event = { id = crisis.1203 days = 113 } # Fleet Arrives
									fleet_event = { id = crisis.1203 days = 263 } # Fleet Arrives
									fleet_event = { id = crisis.1206 days = 15 } # Constructor Arrives
									fleet_event = { id = crisis.1206 days = 19 } # Constructor Arrives
									fleet_event = { id = crisis.1206 days = 68 } # Constructor Arrives
									fleet_event = { id = crisis.1206 days = 158 } # Constructor Arrives
									event_target:extradimensional_trespassers = { country_event = { id = crisis.1260 days = 413 } } # Spawn Cycle starts
								}
								spawn_time_0p5x = {
									fleet_event = { id = crisis.1203 days = 1 } # Fleet Arrives
									fleet_event = { id = crisis.1203 days = 3 } # Fleet Arrives
									fleet_event = { id = crisis.1203 days = 8 } # Fleet Arrives
									fleet_event = { id = crisis.1203 days = 15 } # Fleet Arrives
									fleet_event = { id = crisis.1203 days = 23 } # Fleet Arrives
									fleet_event = { id = crisis.1203 days = 30 } # Fleet Arrives
									fleet_event = { id = crisis.1203 days = 75 } # Fleet Arrives
									fleet_event = { id = crisis.1203 days = 175 } # Fleet Arrives
									fleet_event = { id = crisis.1206 days = 10 } # Constructor Arrives
									fleet_event = { id = crisis.1206 days = 13 } # Constructor Arrives
									fleet_event = { id = crisis.1206 days = 45 } # Constructor Arrives
									fleet_event = { id = crisis.1206 days = 105 } # Constructor Arrives
									event_target:extradimensional_trespassers = { country_event = { id = crisis.1260 days = 275 } } # Spawn Cycle starts
								}
								spawn_time_1p5x = {
									fleet_event = { id = crisis.1203 days = 2 } # Fleet Arrives
									fleet_event = { id = crisis.1203 days = 8 } # Fleet Arrives
									fleet_event = { id = crisis.1203 days = 23 } # Fleet Arrives
									fleet_event = { id = crisis.1203 days = 45 } # Fleet Arrives
									fleet_event = { id = crisis.1203 days = 68 } # Fleet Arrives
									fleet_event = { id = crisis.1203 days = 90 } # Fleet Arrives
									fleet_event = { id = crisis.1203 days = 225 } # Fleet Arrives
									fleet_event = { id = crisis.1203 days = 525 } # Fleet Arrives
									fleet_event = { id = crisis.1206 days = 30 } # Constructor Arrives
									fleet_event = { id = crisis.1206 days = 38 } # Constructor Arrives
									fleet_event = { id = crisis.1206 days = 135 } # Constructor Arrives
									fleet_event = { id = crisis.1206 days = 315 } # Constructor Arrives
									event_target:extradimensional_trespassers = { country_event = { id = crisis.1260 days = 825 } } # Spawn Cycle starts
								}
							}
							if = {
								limit = {
									NOT = {
										has_global_flag = spawn_time_0p75x
										has_global_flag = spawn_time_0p5x
										has_global_flag = spawn_time_1p5x
									}
								}
								fleet_event = { id = crisis.1203 days = 1 } # Fleet Arrives
								fleet_event = { id = crisis.1203 days = 5 } # Fleet Arrives
								fleet_event = { id = crisis.1203 days = 15 } # Fleet Arrives
								fleet_event = { id = crisis.1203 days = 30 } # Fleet Arrives
								fleet_event = { id = crisis.1203 days = 45 } # Fleet Arrives
								fleet_event = { id = crisis.1203 days = 60 } # Fleet Arrives
								fleet_event = { id = crisis.1203 days = 150 } # Fleet Arrives
								fleet_event = { id = crisis.1203 days = 350 } # Fleet Arrives
								fleet_event = { id = crisis.1206 days = 20 } # Constructor Arrives
								fleet_event = { id = crisis.1206 days = 25 } # Constructor Arrives
								fleet_event = { id = crisis.1206 days = 90 } # Constructor Arrives
								fleet_event = { id = crisis.1206 days = 210 } # Constructor Arrives
								event_target:extradimensional_trespassers = { country_event = { id = crisis.1260 days = 550 } } # Spawn Cycle starts
							}
								
								
							}
						}
						random_list = {
							25 = {
								create_leader = {
									type = admiral
									species = event_target:extradimensional_trespassers_species
									name = random
									skill = 1000
									traits = {
										trait = leader_trait_ethereal
									}
								}
							}
							25 = {
								create_leader = {
									type = admiral
									species = event_target:extradimensional_trespassers_species
									name = random
									skill = 1000
									traits = {
										trait = leader_trait_dimensional_stutter
									}
								}
							}
							50 = {
								create_leader = {
									type = admiral
									species = event_target:extradimensional_trespassers_species
									name = random
									skill = 500
								}
							}
						}
						spawn_portal_defend_fleet = yes
					}
				}
			}
			establish_communications_no_message = event_target:extradimensional_trespassers#first ED
		}
		every_country = {
			limit = {
				OR = {
					is_country_type = default
					is_country_type = fallen_empire
					is_country_type = awakened_fallen_empire
				}
			}
			country_event = { id = crisis.1210 days = 1 }
		}
		establish_communications_no_message = event_target:extradimensional_trespassers#second ED
	}
}

# Fleet Reinforcements
fleet_event = {
	id = crisis.1203
	hide_window = yes
	
	is_triggered_only = yes
	
	immediate = {
		event_target:extradimensional_trespassers = {
			random_list = {
				25 = {
					create_leader = {
						type = admiral
						species = event_target:extradimensional_trespassers_species
						name = random
						skill = 1000
						traits = {
							trait = leader_trait_ethereal
						}
					}
				}
				25 = {
					create_leader = {
						type = admiral
						species = event_target:extradimensional_trespassers_species
						name = random
						skill = 1000
						traits = {
							trait = leader_trait_dimensional_stutter
						}
					}
				}
				50 = {
					create_leader = {
						type = admiral
						species = event_target:extradimensional_trespassers_species
						name = random
						skill = 500
					}
				}
			}
			spawn_big_unbidden_fleet = yes
		}
	}
}


# Destroy EXDs if no portals and only 5 or less ships remain
# On yearly pulse
event = {
	id = crisis.1254
	hide_window = yes

	is_triggered_only = yes

	trigger = {
		any_country = {
			OR = {
				is_country_type = extradimensional
				is_country_type = extradimensional_2
				is_country_type = extradimensional_3
			}
		}
	}

	immediate = {
		if = {
			limit = {
				any_country = {
					OR = {
						is_country_type = extradimensional
						is_country_type = extradimensional_2
						is_country_type = extradimensional_3
					}
					OR = {
						AND = {
							has_global_flag = extradimensional_first_portal_destroyed
							NOT = { has_global_flag = extradimensional_second_portal }
							NOT = { has_global_flag = extradimensional_third_portal }
						}
						AND = {
							has_global_flag = extradimensional_first_portal_destroyed
							has_global_flag = extradimensional_second_portal_destroyed
							NOT = { has_global_flag = extradimensional_third_portal }
						}
						AND = {
							has_global_flag = extradimensional_first_portal_destroyed
							has_global_flag = extradimensional_second_portal_destroyed
							has_global_flag = extradimensional_third_portal_destroyed
						}
					}

					num_ships < 6

					NOR = {
						any_owned_ship = { is_ship_size = dimensional_portal_ed }
						any_country = {
							AND = {
								is_country_type = portal_holder
								any_owned_ship = { is_ship_size = dimensional_portal_ed }
							}
						}
					}

					NOT = {
						any_system = {
							any_planet = {
								controller = {
									OR = {
										is_country_type = extradimensional
										is_country_type = extradimensional_2
										is_country_type = extradimensional_3
									}
								}
							}
						}
					}

					NOT = {
						any_system = {
							any_planet = {
								owner = {
									OR = {
										is_country_type = extradimensional
										is_country_type = extradimensional_2
										is_country_type = extradimensional_3
									}
								}
							}
						}
					}
				}
			}

			every_country = {
				limit = {
					OR = {
						is_country_type = extradimensional
						is_country_type = extradimensional_2
						is_country_type = extradimensional_3
						is_country_type = portal_holder #added
					}
				}
				destroy_country = yes
			}
		}
	}
}

# Extradimensionals: Military Reinforcements Spawn Cycle (HIDDEN)
country_event = {
	id = crisis.1260
	hide_window = yes
	
	is_triggered_only = yes
	
	trigger = {
		OR = {
			is_country_type = extradimensional
			is_country_type = extradimensional_2
			is_country_type = extradimensional_3
		}
		OR = {
			count_owned_ships = {
				limit = { is_ship_size = dimensional_portal_ed }
				count > 0
			}
			any_country = {#modified #cancel reinforcements if portal is lost even if the other factions have a portal
				AND = {
					is_country_type = portal_holder
					any_owned_ship  = {
						is_ship_size = dimensional_portal_ed 
						OR = {
							AND = {
								ROOT = {is_country_type = extradimensional}
								has_ship_flag = unbidden_portal
							}
							AND = {
								ROOT = {is_country_type = extradimensional_2}
								has_ship_flag = aberrant_portal
							}
							AND = {
								ROOT = {is_country_type = extradimensional_3}
								has_ship_flag = vehement_portal
							}
						}
					}
				}
			}
		}
	}
		
		
	immediate = {
		# Spawn Construction Ships if needed
		country_event = { id = crisis.1266 days = 6 } 
		# If at fleet cap
		if = {
			limit = {
				num_ships > 2000
			}
			country_event = { id = crisis.1260 days = 600 random = 200 } # Check again later
			break = yes
		}
		# If no Anchors
		if = {
			limit = {
				count_owned_ships = {
					limit = { is_ship_size = anchor_station }
					count < 1
				}
			}
			#log = "[Root.GetName] < 1"
			switch = {
				trigger = has_global_flag
				spawn_time_0p75x = {country_event = { id = crisis.1265 days = 1125 random = 150  }}#1125 150
				spawn_time_0p5x = {country_event = { id = crisis.1265 days = 750 random = 100 }}#750 100
				spawn_time_1p5x = {country_event = { id = crisis.1265 days = 2250 random = 300 }}#2250 300
			}
			if = {
				limit = {
					NOT = {
						has_global_flag = spawn_time_0p75x
						has_global_flag = spawn_time_0p5x
						has_global_flag = spawn_time_1p5x
					}
				}
				country_event = { id = crisis.1265 days = 1500  }  #1500 200
			}
			break = yes
		}
		if = {
			limit = {
				count_owned_ships = {
					limit = { is_ship_size = anchor_station }
					count = 1
				}
			}
			#log = "[Root.GetName] 1"
			switch = {
				trigger = has_global_flag
				spawn_time_0p75x = {country_event = { id = crisis.1265 days = 975 random = 150 }}
				spawn_time_0p5x = {country_event = { id = crisis.1265 days = 650 random = 100 }}
				spawn_time_1p5x = {country_event = { id = crisis.1265 days = 1950 random = 300 }}
			}
			if = {
				limit = {
					NOT = {
						has_global_flag = spawn_time_0p75x
						has_global_flag = spawn_time_0p5x
						has_global_flag = spawn_time_1p5x
					}
				}
				country_event = { id = crisis.1265 days = 1300 random = 200 }
			}
			break = yes
		}
		if = {
			limit = {
				count_owned_ships = {
					limit = { is_ship_size = anchor_station }
					count = 2
				}
			}
			#log = "[Root.GetName] 2"
			switch = {
				trigger = has_global_flag
				spawn_time_0p75x = {country_event = { id = crisis.1265 days = 825 random = 150 }}
				spawn_time_0p5x = {country_event = { id = crisis.1265 days = 550 random = 100 }}
				spawn_time_1p5x = {country_event = { id = crisis.1265 days = 1650 random = 300 }}
			}
			if = {
				limit = {
					NOT = {
						has_global_flag = spawn_time_0p75x
						has_global_flag = spawn_time_0p5x
						has_global_flag = spawn_time_1p5x
					}
				}
				country_event = { id = crisis.1265 days = 1100 random = 200 }
			}
			break = yes
		}
		if = {
			limit = {
				count_owned_ships = {
					limit = { is_ship_size = anchor_station }
					count = 3
				}
			}
			#log = "[Root.GetName] 3"
			switch = {
				trigger = has_global_flag
				spawn_time_0p75x = {country_event = { id = crisis.1265 days = 675 random = 150 }}
				spawn_time_0p5x = {country_event = { id = crisis.1265 days = 450 random = 100 }}
				spawn_time_1p5x = {country_event = { id = crisis.1265 days = 1350 random = 300 }}
			}
			if = {
				limit = {
					NOT = {
						has_global_flag = spawn_time_0p75x
						has_global_flag = spawn_time_0p5x
						has_global_flag = spawn_time_1p5x
					}
				}
				country_event = { id = crisis.1265 days = 900 random = 200 }
			}
			break = yes
		}
		if = {
			limit = {
				count_owned_ships = {
					limit = { is_ship_size = anchor_station }
					count = 4
				}
			}
			#log = "[Root.GetName] 4"
			switch = {
				trigger = has_global_flag
				spawn_time_0p75x = {country_event = { id = crisis.1265 days = 450 random = 150 }}
				spawn_time_0p5x = {country_event = { id = crisis.1265 days = 300 random = 100 }}
				spawn_time_1p5x = {country_event = { id = crisis.1265 days = 900 random = 300 }}
			}
			if = {
				limit = {
					NOT = {
						has_global_flag = spawn_time_0p75x
						has_global_flag = spawn_time_0p5x
						has_global_flag = spawn_time_1p5x
					}
				}
				country_event = { id = crisis.1265 days = 600 random = 200 }
			}
			break = yes
		}
		if = {
			limit = {
				count_owned_ships = {
					limit = { is_ship_size = anchor_station }
					count = 5
				}
			}
			#log = "[Root.GetName] 5"
			switch = {
				trigger = has_global_flag
				spawn_time_0p75x = {country_event = { id = crisis.1265 days = 300 random = 150 }}
				spawn_time_0p5x = {country_event = { id = crisis.1265 days = 200 random = 100 }}
				spawn_time_1p5x = {country_event = { id = crisis.1265 days = 600 random = 300 }}
			}
			if = {
				limit = {
					NOT = {
						has_global_flag = spawn_time_0p75x
						has_global_flag = spawn_time_0p5x
						has_global_flag = spawn_time_1p5x
					}
				}
				country_event = { id = crisis.1265 days = 400 random = 200 }
			}
			break = yes
		}
		if = {
			limit = {
				count_owned_ships = {
					limit = { is_ship_size = anchor_station }
					count = 6
				}
			}
			#log = "[Root.GetName] 6"
			switch = {
				trigger = has_global_flag
				spawn_time_0p75x = {country_event = { id = crisis.1265 days = 300 random = 150 }}
				spawn_time_0p5x = {country_event = { id = crisis.1265 days = 200 random = 100 }}
				spawn_time_1p5x = {country_event = { id = crisis.1265 days = 600 random = 300 }}
			}
			if = {
				limit = {
					NOT = {
						has_global_flag = spawn_time_0p75x
						has_global_flag = spawn_time_0p5x
						has_global_flag = spawn_time_1p5x
					}
				}
				country_event = { id = crisis.1265 days = 400 random = 200 }
			}
			break = yes
		}
		if = {
			limit = {
				count_owned_ships = {
					limit = { is_ship_size = anchor_station }
					count = 7
				}
			}
			#log = "[Root.GetName] 7"
			switch = {
				trigger = has_global_flag
				spawn_time_0p75x = {country_event = { id = crisis.1265 days = 225 random = 75 }}
				spawn_time_0p5x = {country_event = { id = crisis.1265 days = 150 random = 50 }}
				spawn_time_1p5x = {country_event = { id = crisis.1265 days = 450 random = 150 }}
			}
			if = {
				limit = {
					NOT = {
						has_global_flag = spawn_time_0p75x
						has_global_flag = spawn_time_0p5x
						has_global_flag = spawn_time_1p5x
					}
				}
				country_event = { id = crisis.1265 days = 300 random = 100 }
			}
			break = yes
		}
		if = {
			limit = {
				count_owned_ships = {
					limit = { is_ship_size = anchor_station }
					count = 8
				}
			}
			#log = "[Root.GetName] 8"
			switch = {
				trigger = has_global_flag
				spawn_time_0p75x = {country_event = { id = crisis.1265 days = 188 random = 38 }}
				spawn_time_0p5x = {country_event = { id = crisis.1265 days = 125 random = 25 }}
				spawn_time_1p5x = {country_event = { id = crisis.1265 days = 375 random = 75 }}
			}
			if = {
				limit = {
					NOT = {
						has_global_flag = spawn_time_0p75x
						has_global_flag = spawn_time_0p5x
						has_global_flag = spawn_time_1p5x
					}
				}
				country_event = { id = crisis.1265 days = 250 random = 50 }
			}
			break = yes
		}
		if = {
			limit = {
				count_owned_ships = {
					limit = { is_ship_size = anchor_station }
					count = 9
				}
			}
			#log = "[Root.GetName] 9"
			switch = {
				trigger = has_global_flag
				spawn_time_0p75x = {country_event = { id = crisis.1265 days = 150 random = 38 }}
				spawn_time_0p5x = {country_event = { id = crisis.1265 days = 100 random = 25 }}
				spawn_time_1p5x = {country_event = { id = crisis.1265 days = 300 random = 75 }}
			}
			if = {
				limit = {
					NOT = {
						has_global_flag = spawn_time_0p75x
						has_global_flag = spawn_time_0p5x
						has_global_flag = spawn_time_1p5x
					}
				}
				country_event = { id = crisis.1265 days = 200 random = 50 }
			}
			break = yes
		}
		if = {
			limit = {
				count_owned_ships = {
					limit = { is_ship_size = anchor_station }
					count > 9
				}
			}
			#log = "[Root.GetName] > 9"
			switch = {
				trigger = has_global_flag
				spawn_time_0p75x = {country_event = { id = crisis.1265 days = 113 random = 38 }}
				spawn_time_0p5x = {country_event = { id = crisis.1265 days = 75 random = 25 }}
				spawn_time_1p5x = {country_event = { id = crisis.1265 days = 225 random = 75 }}
			}
			if = {
				limit = {
					NOT = {
						has_global_flag = spawn_time_0p75x
						has_global_flag = spawn_time_0p5x
						has_global_flag = spawn_time_1p5x
					}
				}
				country_event = { id = crisis.1265 days = 150 random = 50 }
			}
			break = yes
		}
	}
}

# Reinforcements Arrive (HIDDEN)
country_event = {
	id = crisis.1265
	hide_window = yes
	
	is_triggered_only = yes
	
	trigger = {
		# Must only trigger if portal is still alive
		OR = {
			count_owned_ships = {
				limit = { is_ship_size = dimensional_portal_ed }
				count > 0
			}
			any_country = {#modified #cancel reinforcements if portal is lost even if the other factions have a portal
				AND = {
					is_country_type = portal_holder
					any_owned_ship  = {
						is_ship_size = dimensional_portal_ed 
						OR = {
							AND = {
								ROOT = {is_country_type = extradimensional}
								has_ship_flag = unbidden_portal
							}
							AND = {
								ROOT = {is_country_type = extradimensional_2}
								has_ship_flag = aberrant_portal
							}
							AND = {
								ROOT = {is_country_type = extradimensional_3}
								has_ship_flag = vehement_portal
							}
						}
					}
				}
			}
		}
	}
	
	immediate = {
		# random_country = {#fleets can spawn at the wrong portal 
			# limit = { is_country_type = portal_holder }
			# random_owned_ship = {
				# limit = { is_ship_size = dimensional_portal_ed }
				# save_event_target_as = dimensional_portal
			# }
		# }
		random_owned_ship = {
			limit = { is_ship_size = dimensional_portal_ed }
			save_event_target_as = dimensional_portal
		}
		owner_species = { save_event_target_as = extradimensional_species }
		country_event = { id = crisis.1260 } # Restart spawn cycle
		
		# Extradimensionals 1
		if = {
			limit = { is_country_type = extradimensional }
			random_country = {#added
				limit = {
					is_country_type = portal_holder
				}
				random_owned_ship = {
					limit = {
						is_ship_size = dimensional_portal_ed
						has_ship_flag = unbidden_portal #Unbidden spawn only at the Unbidden portal
					}
					save_event_target_as = dimensional_portal
				}
			}
			# Create Admiral
			random_list = {
				25 = {
					create_leader = {
						type = admiral
						species = event_target:extradimensional_species
						name = random
						skill = 1000
						traits = {
							trait = leader_trait_ethereal
						}
					}
				}
				25 = {
					create_leader = {
						type = admiral
						species = event_target:extradimensional_species
						name = random
						skill = 1000
						traits = {
							trait = leader_trait_dimensional_stutter
						}
					}
				}
				50 = {
					create_leader = {
						type = admiral
						species = event_target:extradimensional_species
						name = random
						skill = 500
					}
				}
			}
			
			# Create Fleet
			spawn_small_unbidden_fleet = yes
		}
		
		# Extradimensionals 2
		if = {
			limit = { is_country_type = extradimensional_2 }
			random_country = {#added
				limit = {
					is_country_type = portal_holder
				}
				random_owned_ship = {
					limit = {
						is_ship_size = dimensional_portal_ed
						has_ship_flag = aberrant_portal
					}
					save_event_target_as = dimensional_portal
				}
			}
			# Create Admiral
			random_list = {
				25 = {
					create_leader = {
						type = admiral
						species = event_target:extradimensional_species
						name = random
						skill = 1000
						traits = {
							trait = leader_trait_ethereal
						}
					}
				}
				25 = {
					create_leader = {
						type = admiral
						species = event_target:extradimensional_species
						name = random
						skill = 1000
						traits = {
							trait = leader_trait_dimensional_stutter
						}
					}
				}
				50 = {
					create_leader = {
						type = admiral
						species = event_target:extradimensional_species
						name = random
						skill = 500
					}
				}
			}
			
			# Create Fleet
			spawn_small_unbidden_fleet = yes
			break = yes
		}
		
		# Extradimensionals 3
		if = {
			limit = { is_country_type = extradimensional_3 }
			random_country = {#added
				limit = {
					is_country_type = portal_holder
				}
				random_owned_ship = {
					limit = {
						is_ship_size = dimensional_portal_ed
						has_ship_flag = vehement_portal
					}
					save_event_target_as = dimensional_portal
				}
			}
			# Create Admiral
			random_list = {
				25 = {
					create_leader = {
						type = admiral
						species = event_target:extradimensional_species
						name = random
						skill = 1000
						traits = {
							trait = leader_trait_ethereal
						}
					}
				}
				25 = {
					create_leader = {
						type = admiral
						species = event_target:extradimensional_species
						name = random
						skill = 1000
						traits = {
							trait = leader_trait_dimensional_stutter
						}
					}
				}
				50 = {
					create_leader = {
						type = admiral
						species = event_target:extradimensional_species
						name = random
						skill = 500
					}
				}
			}
			
			# Create Fleet
			spawn_small_unbidden_fleet = yes
			break = yes
		}
	}
}

# Construction Ships Arrive if Needed (HIDDEN)
country_event = {
	id = crisis.1266
	hide_window = yes
	
	is_triggered_only = yes
	
	trigger = {
		# Must only trigger if portal is still alive
		OR = {
			count_owned_ships = {
				limit = { is_ship_size = dimensional_portal_ed }
				count > 0
			}
			any_country = {#modified #cancel reinforcements if portal is lost even if the other factions have a portal
				AND = {
					is_country_type = portal_holder
					any_owned_ship  = {
						is_ship_size = dimensional_portal_ed 
						OR = {
							AND = {
								ROOT = {is_country_type = extradimensional}
								has_ship_flag = unbidden_portal
							}
							AND = {
								ROOT = {is_country_type = extradimensional_2}
								has_ship_flag = aberrant_portal
							}
							AND = {
								ROOT = {is_country_type = extradimensional_3}
								has_ship_flag = vehement_portal
							}
						}
					}
				}
			}
		}
		
		count_owned_ships = {
			limit = { is_ship_size = construction_ship_ed }
			count < 3
		}
	}
	
	immediate = {	
		# random_country = {#fleets can spawn at the wrong portal 
			# limit = { is_country_type = portal_holder }
			# random_owned_ship = {
				# limit = { is_ship_size = dimensional_portal_ed }
				# save_event_target_as = dimensional_portal
			# }
		# }
		random_owned_ship = {
			limit = { is_ship_size = dimensional_portal_ed }
			save_event_target_as = dimensional_portal
		}
		# Extradimensionals 1
		if = {
			limit = { is_country_type = extradimensional }
			random_country = {#added
				limit = {
					is_country_type = portal_holder
				}
				random_owned_ship = {
					limit = {
						is_ship_size = dimensional_portal_ed
						has_ship_flag = unbidden_portal #Unbidden spawn only at the Unbidden portal
					}
					save_event_target_as = dimensional_portal
				}
			}
			while = {
				count = 2
				create_fleet = {
					effect = {
						set_owner = ROOT
						create_ship = {
							name = random
							design = "NAME_Void_Shaper"
							graphical_culture = "extra_dimensional_01"
						}
						set_location = {
							target = event_target:dimensional_portal
							distance = 5
							angle = random
						}
					}
				}
			}
			break = yes
		}
		
		# Extradimensionals 2
		if = {
			limit = { is_country_type = extradimensional_2 }
			random_country = {#added
				limit = {
					is_country_type = portal_holder
				}
				random_owned_ship = {
					limit = {
						is_ship_size = dimensional_portal_ed
						has_ship_flag = aberrant_portal
					}
					save_event_target_as = dimensional_portal
				}
			}
			while = {
				count = 2
				create_fleet = {
					effect = {
						set_owner = ROOT
						create_ship = {
							name = random
							design = "NAME_Void_Former"
							graphical_culture = "extra_dimensional_02"
						}
						set_location = {
							target = event_target:dimensional_portal
							distance = 5
							angle = random
						}
					}
				}
			}
			break = yes
		}
		
		# Extradimensionals 3
		if = {
			limit = { is_country_type = extradimensional_3 }
			random_country = {#added
				limit = {
					is_country_type = portal_holder
				}
				random_owned_ship = {
					limit = {
						is_ship_size = dimensional_portal_ed
						has_ship_flag = vehement_portal
					}
					save_event_target_as = dimensional_portal
				}
			}
			while = {
				count = 2
				create_fleet = {
					effect = {
						set_owner = ROOT
						create_ship = {
							name = random
							design = "NAME_Void_Weaver"
							graphical_culture = "extra_dimensional_03"
						}
						set_location = {
							target = event_target:dimensional_portal
							distance = 5
							angle = random
						}
					}
				}
			}
			break = yes
		}
	}
}

# Reinforcements Arrive After Building Anchor (HIDDEN)
ship_event = {
	id = crisis.1267
	hide_window = yes
	
	is_triggered_only = yes
	
	trigger = {
		owner = {
			# Must only trigger if portal is still alive
			OR = {
				count_owned_ships = {
					limit = { is_ship_size = dimensional_portal_ed }
					count > 0
				}
				any_country = {
					AND = {
						is_country_type = portal_holder
						count_owned_ships = {
							limit = { is_ship_size = dimensional_portal_ed }
							count > 0
						}
					}
				}
			}
			OR = {
				is_country_type = extradimensional
				is_country_type = extradimensional_2
				is_country_type = extradimensional_3
			}
			num_ships < 2001
		}
	}
	
	immediate = {
		owner = {
			country_event = { id = crisis.1266 days = 6 } # Spawn Construction Ships if needed
			# random_country = {#fleets can spawn at the wrong portal 
				# limit = { is_country_type = portal_holder }
				# random_owned_ship = {
					# limit = { is_ship_size = dimensional_portal_ed }
					# save_event_target_as = dimensional_portal
				# }
			# }
			random_owned_ship = {
				limit = { is_ship_size = dimensional_portal_ed }
				save_event_target_as = dimensional_portal
			}
			owner_species = { save_event_target_as = extradimensional_species }
			
			# Extradimensionals 1
			if = {
				limit = { is_country_type = extradimensional }
				random_country = {#added
					limit = {
						is_country_type = portal_holder
					}
					random_owned_ship = {
						limit = {
							is_ship_size = dimensional_portal_ed
							has_ship_flag = unbidden_portal #Unbidden spawn only at the Unbidden portal
						}
						save_event_target_as = dimensional_portal
					}
				}
				# Create Admiral
				random_list = {
					25 = {
						create_leader = {
							type = admiral
							species = event_target:extradimensional_species
							name = random
							skill = 1000
							traits = {
								trait = leader_trait_ethereal
							}
						}
					}
					25 = {
						create_leader = {
							type = admiral
							species = event_target:extradimensional_species
							name = random
							skill = 1000
							traits = {
								trait = leader_trait_dimensional_stutter
							}
						}
					}
					50 = {
						create_leader = {
							type = admiral
							species = event_target:extradimensional_species
							name = random
							skill = 500
						}
					}
				}
				
				# Create Fleet
				spawn_small_unbidden_fleet = yes
			}
			
			# Extradimensionals 2
			if = {
				limit = { is_country_type = extradimensional_2 }
				random_country = {#added
					limit = {
						is_country_type = portal_holder
					}
					random_owned_ship = {
						limit = {
							is_ship_size = dimensional_portal_ed
							has_ship_flag = aberrant_portal
						}
						save_event_target_as = dimensional_portal
					}
				}
				# Create Admiral
				random_list = {
					25 = {
						create_leader = {
							type = admiral
							species = event_target:extradimensional_species
							name = random
							skill = 1000
							traits = {
								trait = leader_trait_ethereal
							}
						}
					}
					25 = {
						create_leader = {
							type = admiral
							species = event_target:extradimensional_species
							name = random
							skill = 1000
							traits = {
								trait = leader_trait_dimensional_stutter
							}
						}
					}
					50 = {
						create_leader = {
							type = admiral
							species = event_target:extradimensional_species
							name = random
							skill = 500
						}
					}
				}
				
				# Create Fleet
				spawn_small_unbidden_fleet = yes
				break = yes
			}
			
			# Extradimensionals 3
			if = {
				limit = { is_country_type = extradimensional_3 }
				random_country = {#added
					limit = {
						is_country_type = portal_holder
					}
					random_owned_ship = {
						limit = {
							is_ship_size = dimensional_portal_ed
							has_ship_flag = vehement_portal
						}
						save_event_target_as = dimensional_portal
					}
				}
				# Create Admiral
				random_list = {
					25 = {
						create_leader = {
							type = admiral
							species = event_target:extradimensional_species
							name = random
							skill = 1000
							traits = {
								trait = leader_trait_ethereal
							}
						}
					}
					25 = {
						create_leader = {
							type = admiral
							species = event_target:extradimensional_species
							name = random
							skill = 1000
							traits = {
								trait = leader_trait_dimensional_stutter
							}
						}
					}
					50 = {
						create_leader = {
							type = admiral
							species = event_target:extradimensional_species
							name = random
							skill = 500
						}
					}
				}
				
				# Create Fleet
				spawn_small_unbidden_fleet = yes
				break = yes
			}
		}
	}
}


	
	
# Anchor Destroyed (HIDDEN)
country_event = {
	id = crisis.1281
	hide_window = yes
	
	is_triggered_only = yes
	
	trigger = {
		FROMFROM = { is_ship_size = anchor_station }
	}
	
	immediate = {
		log = "anchor destroyed event crisis.1281 triggered"
		if = {
			limit = {
				count_owned_ships = {
					limit = { is_ship_size = anchor_station }
					count = 1#it's seems that the destroyed station in fromfrom isn't counted anymore
				}#could change it to <1 but this won't work anymore if fromfrom is counted again
			}#solution: check one day later with <1. The the new event shouldn't "know" the destroyed station fromfrom
			switch = {
				trigger = has_country_flag
				unbidden = {
					random_country = {
						limit = {
							is_country_type = portal_holder
						}
						random_owned_ship = {
							limit = {
								is_ship_size = dimensional_portal_ed
								has_ship_flag = unbidden_portal
							}
							fleet = { set_owner = root }
							fleet = { set_event_locked = no }
						}
					}
				}
				aberrant = {
					random_country = {
						limit = {
							is_country_type = portal_holder
						}
						random_owned_ship = {
							limit = {
								is_ship_size = dimensional_portal_ed
								has_ship_flag = aberrant_portal
							}
							fleet = { set_owner = root }
							fleet = { set_event_locked = no }
						}
					}
				}
				vehement = {
					random_country = {
						limit = {
							is_country_type = portal_holder
						}
						random_owned_ship = {
							limit = {
								is_ship_size = dimensional_portal_ed
								has_ship_flag = vehement_portal
							}
							fleet = { set_owner = root }
							fleet = { set_event_locked = no }
						}
					}
				}
			}
		}
		log = "ccs: check again"
		country_event = {id = crisis.12810 days = 1 }
		if = {
			limit = { is_country_type = extradimensional }
			every_country = {
				limit = { has_event_chain = "extradimensional_invasion_chain" }
				add_event_chain_counter = { 
					event_chain = "extradimensional_invasion_chain" 
					counter = "dimensional_anchors_1" 
					amount = -1 
				}
			}
			break = yes
		}
		if = {
			limit = { is_country_type = extradimensional_2 }
			every_country = {
				limit = { has_event_chain = "extradimensional_invasion_chain_2" }
				add_event_chain_counter = { 
					event_chain = "extradimensional_invasion_chain_2" 
					counter = "dimensional_anchors_2" 
					amount = -1 
				}
			}
			break = yes
		}
		if = {
			limit = { is_country_type = extradimensional_3 }
			every_country = {
				limit = { has_event_chain = "extradimensional_invasion_chain_3" }
				add_event_chain_counter = { 
					event_chain = "extradimensional_invasion_chain_3" 
					counter = "dimensional_anchors_3" 
					amount = -1 
				}
			}
			break = yes
		}
	}
}

country_event = {
	id = crisis.12810
	hide_window = yes
	
	is_triggered_only = yes
	
	trigger = {}
	
	immediate = {
		if = {
			limit = {
				count_owned_ships = {
					limit = { is_ship_size = anchor_station }
					count < 1
				}
			}
			log = "ccs: check positive"
			switch = {
				trigger = has_country_flag
				unbidden = {
					random_country = {
						limit = {
							is_country_type = portal_holder
						}
						random_owned_ship = {
							limit = {
								is_ship_size = dimensional_portal_ed
								has_ship_flag = unbidden_portal
							}
							fleet = { set_owner = root }
							fleet = { set_event_locked = no }
						}
					}
				}
				aberrant = {
					random_country = {
						limit = {
							is_country_type = portal_holder
						}
						random_owned_ship = {
							limit = {
								is_ship_size = dimensional_portal_ed
								has_ship_flag = aberrant_portal
							}
							fleet = { set_owner = root }
							fleet = { set_event_locked = no }
						}
					}
				}
				vehement = {
					random_country = {
						limit = {
							is_country_type = portal_holder
						}
						random_owned_ship = {
							limit = {
								is_ship_size = dimensional_portal_ed
								has_ship_flag = vehement_portal
							}
							fleet = { set_owner = root }
							fleet = { set_event_locked = no }
						}
					}
				}
			}
			else = {
				log = "anchor built and crisis.1280 executed, not yet reaching fleet owner switch (css)"
				random_country = {
					limit = { is_country_type = portal_holder }
					save_event_target_as = portal_holder_1
				}
				random_owned_ship = {
					limit = { is_ship_size = dimensional_portal_ed }
					fleet = { set_event_locked = yes }
					fleet = {
						set_owner = event_target:portal_holder_1
						log = "anchor built and crisis.1280 executed, reaching fleet owner switch (ccs)"
					}
				}
			}
		}
	}
}



#todo check crisis sound if two crisis are active

# Events to manage crisis sound loop
country_event = {
	id = crisis.1230
	hide_window = yes
	
	trigger = {
		has_crisis_stage_3 = yes
		OR = {
			is_country_type = extradimensional 
			is_country_type = extradimensional_2
			is_country_type = extradimensional_3
		}
		NOT = {
			any_country = {
				OR = {
					is_country_type = extradimensional 
					is_country_type = extradimensional_2
					is_country_type = extradimensional_3
				}			
				galaxy_percentage > 0.10
			}
		}
	}
	
	mean_time_to_happen = {
		months = 1
	}
	
	immediate = {
		set_crisis_sound = extradimensional_crisis_ambient_stage_2
		set_crisis_stage_2 = yes	
	}
}

country_event = {
	id = crisis.1231
	hide_window = yes
	
	trigger = {
		has_crisis_stage_2 = yes
		OR = {
			is_country_type = extradimensional 
			is_country_type = extradimensional_2
			is_country_type = extradimensional_3
		}
		any_country = {
			OR = {
				is_country_type = extradimensional 
				is_country_type = extradimensional_2
				is_country_type = extradimensional_3
			}			
			galaxy_percentage > 0.15
		}
	}
	
	mean_time_to_happen = {
		months = 1
	}	
	
	immediate = {
		set_crisis_sound = extradimensional_crisis_ambient_stage_3
		set_crisis_stage_3 = yes	
	}
}

country_event = {
	id = crisis.1232
	hide_window = yes
	
	trigger = {
		has_crisis_stage_4 = yes
		OR = {
			is_country_type = extradimensional 
			is_country_type = extradimensional_2
			is_country_type = extradimensional_3
		}
		NOT = {
			any_country = {
				OR = {
					is_country_type = extradimensional 
					is_country_type = extradimensional_2
					is_country_type = extradimensional_3
				}			
				galaxy_percentage > 0.25
			}
		}
	}
	
	mean_time_to_happen = {
		months = 1
	}	
	
	immediate = {
		set_crisis_sound = extradimensional_crisis_ambient_stage_3
		set_crisis_stage_3 = yes	
	}
}

country_event = {
	id = crisis.1233
	hide_window = yes
	
	trigger = {
		has_crisis_stage_3 = yes
		OR = {
			is_country_type = extradimensional 
			is_country_type = extradimensional_2
			is_country_type = extradimensional_3
		}
		any_country = {
			OR = {
				is_country_type = extradimensional 
				is_country_type = extradimensional_2
				is_country_type = extradimensional_3
			}			
			galaxy_percentage > 0.30
		}
	}
	
	mean_time_to_happen = {
		months = 1
	}	
	
	immediate = {
		set_crisis_sound = extradimensional_crisis_ambient_stage_4
		set_crisis_stage_4 = yes	
	}
}

country_event = {
	id = crisis.1234
	hide_window = yes
	
	trigger = {
		has_crisis_stage_1 = yes
		OR = {
			is_country_type = extradimensional 
			is_country_type = extradimensional_2
			is_country_type = extradimensional_3
		}
		any_country = {
			OR = {
				is_country_type = extradimensional 
				is_country_type = extradimensional_2
				is_country_type = extradimensional_3
			}			
			galaxy_percentage > 0.05
		}
	}
	
	mean_time_to_happen = {
		months = 1
	}	
	
	immediate = {
		set_crisis_sound = extradimensional_crisis_ambient_stage_2
		set_crisis_stage_2 = yes	
	}
}