##############################
# Traditionalist Faction
##############################

traditionalist = {
	election_header = "GFX_faction_header_yellow"
	guiding_ethic = ethic_spiritualist
	
	unique = yes
	support_multiplier = 1
	
	is_potential = {
		years_passed > 10
		has_encountered_other_species = yes
		OR = {
			NOT = { has_ethic = "ethic_gestalt_consciousness" }
			has_valid_civic = civic_hive_harmonious 
		}  
	}
	
	parameters = {
		empire = {
			type = country
			valid_objects = {
				is_same_value = root
			}
		}
	}
	
	can_join_faction = {
		is_enslaved = no
		is_shackled_robot = no
		is_being_purged = no
		has_culture_shock = no
		NOR = { 
			has_trait = trait_nerve_stapled
			has_trait = trait_robot_control_harness
		}
		OR = {
			has_ethic = ethic_spiritualist
			has_ethic = ethic_fanatic_spiritualist
		}
		is_robot_pop = no
	}
	
	attraction = {
		base = 150
		
		modifier = {
			factor = 1.25
			exists = from
			from = {
				exists = leader
				leader = { leader_class = ruler }
			}
		}
		
		modifier = {
			factor = 0.75
			exists = from
			from = {
				NOT = { exists = leader }
			}
		}
	}
	
	leader = {
		base = 100
		modifier = {
			factor = 0
			OR = {
				has_trait = "trait_robotic_1"
				has_trait = "trait_robotic_2"
				has_trait = "trait_robotic_3"
			}			
		}

		modifier = {
			factor = 0.0
			is_event_leader = yes
		}		
	}

	#demand = { # "TRADITIONALIST_NO_ROBOTS"
	#	title = "TRADITIONALIST_NO_ROBOTS"
	#	unfulfilled_title = "TRADITIONALIST_ROBOTS"
	#	desc = "TRADITIONALIST_NO_ROBOTS_DESC"
	#	
	#	unfulfilled_effect = -5
	#	
	#	potential = {
	#		exists = owner
	#		owner = {
	#			OR = {
	#				has_technology = tech_robotic_workers
	#				any_owned_pop = {
	#					is_robot_pop = yes
	#				}					
	#			}				
	#			NOT = { has_technology = tech_synthetic_workers }
	#		}
	#	}
	#	
	#	trigger = {
	#		owner = {
	#			NOT = {
	#				any_owned_pop = {
	#					is_robot_pop = yes
	#				}
	#			}
	#		}
	#	}
	#}
	
	demand = { # "TRADITIONALIST_NO_ROBOT_RIGHTS"
		title = "TRADITIONALIST_NO_ROBOT_RIGHTS"
		unfulfilled_title = "TRADITIONALIST_ROBOT_RIGHTS"
		desc = "TRADITIONALIST_NO_ROBOT_RIGHTS_DESC"

		unfulfilled_effect = -10

		potential = {
			exists = owner
			owner = {
				has_technology = tech_synthetic_workers
				NOT = { has_policy_flag = ai_full_rights }
				NOT = { has_country_flag = is_irobot } 
			}
		}

		trigger = {
			owner = {
				NOT = { has_policy_flag = ai_servitude }
			}
		}
	}	

	demand = { # "TRADITIONALIST_NO_FULL_ROBOT_RIGHTS"
		title = "TRADITIONALIST_NO_FULL_ROBOT_RIGHTS"
		unfulfilled_title = "TRADITIONALIST_FULL_ROBOT_RIGHTS"
		desc = "TRADITIONALIST_NO_FULL_ROBOT_RIGHTS_DESC"

		unfulfilled_effect = -10

		potential = {
			exists = owner
			owner = {
				has_technology = tech_synthetic_workers
				has_policy_flag = ai_full_rights
				NOT = {  has_country_flag = is_irobot }
			}
		}

		trigger = {
			owner = {
				NOT = { has_policy_flag = ai_full_rights }
			}
		}
	}

	demand = { # "TRADITIONALIST_SPIRITUALIST_GOVERNMENT"
		title = "TRADITIONALIST_SPIRITUALIST_GOVERNMENT"
		unfulfilled_title = "TRADITIONALIST_SECULAR_GOVERNMENT"
		desc = "TRADITIONALIST_SPIRITUALIST_GOVERNMENT_DESC"
		
		fulfilled_effect = 5
		unfulfilled_effect = -5
		
		potential = {
			exists = owner
			owner = { NOT = {  has_ethic = "ethic_gestalt_consciousness" } }
		}
		
		trigger = {
			owner = {
				OR = {
					has_ethic = ethic_fanatic_spiritualist
					has_ethic = ethic_spiritualist
				}
			}
		}
	}

	demand = { # "TRADITIONALIST_NO_TOMB_WORLDS"
		title = "TRADITIONALIST_NO_TOMB_WORLDS"
		unfulfilled_title = "TRADITIONALIST_TOMB_WORLDS"
		desc = "TRADITIONALIST_NO_TOMB_WORLDS_DESC"

		unfulfilled_effect = -10

		potential = {
			exists = owner
			owner = {
				has_surveyed_class = pc_nuked
			}
		}

		trigger = {
			owner = {
				NOT = {
					any_owned_planet = {
						is_planet_class = pc_nuked
					}
				}
			}
		}
	}

	demand = { # "TRADITIONALIST_GAIA_WORLDS"
		title = "TRADITIONALIST_GAIA_WORLDS"
		unfulfilled_title = "TRADITIONALIST_NO_GAIA_WORLDS"
		desc = "TRADITIONALIST_GAIA_WORLDS_DESC"

		fulfilled_effect = 5

		potential = {
			exists = owner
			owner = {
				has_surveyed_class = pc_gaia
			}
		}

		trigger = {
			owner = {
				any_owned_planet = {
					is_planet_class = pc_gaia
				}
			}
		}
	}

	demand = { # "TRADITIONALIST_UNBLISSED"
		title = "TRADITIONALIST_UNBLISSED"
		unfulfilled_title = "TRADITIONALIST_BLISSED"
		desc = "TRADITIONALIST_UNBLISSED_DESC"

		unfulfilled_effect = -5

		potential = {
			exists = owner
			owner = {
				has_technology = tech_subdermal_stimulation
			}
		}

		trigger = {
			owner = {
				NOT = {
					any_owned_pop = {
						has_living_standard = {
							country = root.owner
							type = chemical_bliss
						}
					}
				}
			}
		}
	}

	demand = { # "TRADITIONALIST_PSIONIC_PURSUIT"
		title = "TRADITIONALIST_PSIONIC_PURSUIT"
		unfulfilled_title = "TRADITIONALIST_NO_PSIONIC_PURSUIT"
		desc = "TRADITIONALIST_PSIONIC_PURSUIT_DESC"

		fulfilled_effect = 10

		potential = {
			host_has_dlc = "Utopia"
			exists = owner
			owner = {
				OR = {
					num_ascension_perks > 0
					num_ascension_perk_slots > 0
				}
			}
		}

		trigger = {
			owner = {
				has_ascension_perk = ap_mind_over_matter
			}
		}
	}

	demand = { # "TRADITIONALIST_FLESH_IS_STRONG"
		title = "TRADITIONALIST_FLESH_IS_STRONG"
		unfulfilled_title = "TRADITIONALIST_FLESH_IS_WEAK"
		desc = "TRADITIONALIST_FLESH_IS_STRONG_DESC"

		unfulfilled_effect = -30

		potential = {
			exists = owner
			owner = {
				has_ascension_perk = ap_the_flesh_is_weak
			}
		}

		trigger = {
			owner = {
				NOT = {
					has_country_flag = flesh_weakened
				}
			}
		}
	}

	demand = { # "TRADITIONALIST_SPIRITUALIST_POPS"
		title = "TRADITIONALIST_SPIRITUALIST_POPS"
		unfulfilled_title = "TRADITIONALIST_FEW_SPIRITUALIST_POPS"
		desc = "TRADITIONALIST_SPIRITUALIST_POPS_DESC"

		fulfilled_effect = 5

		potential = {
			exists = owner
			owner = { NOT = {  has_ethic = "ethic_gestalt_consciousness" } }
		}

		trigger = {
			owner = {
				pop_percentage = {
					percentage > 0.24
					limit = { pop_has_ethic = ethic_spiritualist }
				}
			}
		}
	}

	demand = { # "TRADITIONALIST_UNSPIRITUALIST"
		title = "TRADITIONALIST_UNSPIRITUALIST"
		unfulfilled_title = "TRADITIONALIST_NOT_UNSPIRITUALIST"
		desc = "TRADITIONALIST_UNSPIRITUALIST_DESC"

		unfulfilled_effect = -10

		potential = {
			exists = owner
			owner = { NOT = {  has_ethic = "ethic_gestalt_consciousness" } }
			#owner = {
			#	pop_percentage = {
			#		percentage < 0.10
			#		limit = { pop_has_ethic = ethic_spiritualist }
			#	}
			#}
		}

		trigger = {
			owner = {
				pop_percentage = {
					percentage > 0.09
					limit = { pop_has_ethic = ethic_spiritualist }
				}
			}
		}
	}

	demand = { # "TRADITIONALIST_SHROUD_BOON"
		title = "TRADITIONALIST_SHROUD_BOON"
		unfulfilled_title = "TRADITIONALIST_NO_SHROUD_BOON"
		desc = "TRADITIONALIST_SHROUD_BOON_DESC"

		fulfilled_effect = 5

		potential = {
			exists = owner
			owner = {
				has_country_flag = positive_shroud_outcome
				#has_country_flag = breached_shroud
			}
		}

		trigger = {
			owner = {
				has_country_flag = positive_shroud_outcome
			}
		}
	}

	demand = { # "TRADITIONALIST_SHROUD_CURSE"
		title = "TRADITIONALIST_SHROUD_CURSE"
		unfulfilled_title = "TRADITIONALIST_NO_SHROUD_CURSE"
		desc = "TRADITIONALIST_SHROUD_CURSE_DESC"

		fulfilled_effect = -5

		potential = {
			exists = owner
			owner = {
				has_country_flag = negative_shroud_outcome
				#has_country_flag = breached_shroud
			}
		}

		trigger = {
			owner = {
				has_country_flag = negative_shroud_outcome
			}
		}
	}

	demand = {
		title = "TRADITIONALIST_HARMONY"
		unfulfilled_title = "TRADITIONALIST_NO_HARMONY"
		desc = "TRADITIONALIST_HARMONY_DESC"

		fulfilled_effect = 2
		unfulfilled_effect = -5

		potential = {
			exists = owner
			owner = {
				has_any_tradition_unlocked = yes
			}
		}

		trigger = {
			owner = {
				OR = {
					has_tradition = tr_harmony_adopt
					has_tradition = tr_harmony_the_greater_good
					has_tradition = tr_harmony_kinship
					has_tradition = tr_harmony_utopian_dream
					has_tradition = tr_harmony_bulwark_of_harmony
					has_tradition = tr_harmony_mind_and_body
				}
			}
		}
	}
	
	on_create = {
		pop_faction_event = { id = factions.1 }
	}

	on_destroy = {
		if = {
			limit = {
				has_modifier = promoted_spiritualist
			}
			remove_modifier = promoted_spiritualist
		}
		if = {
			limit = {
				has_modifier = suppressed_spiritualist
			}
			remove_modifier = suppressed_spiritualist
		}
	}
	
	actions = {
		embrace_faction = {
			title = "EMBRACE_FACTION"
			description = "EMBRACE_FACTION_DESC"
			
			cost = {
				influence = 500
			}
			
			potential = {
				exists = owner
				owner = {
					OR = {
						is_subject = no
						NOT = { is_subject_type = dominion }
					}
				}
			}
			
			valid = {
				custom_tooltip = {
					fail_text = EMBRACE_FACTION_COOLDOWN
					parameter:empire = {
						NOT = { has_modifier = embraced_faction_timer }
					}
				}
				support > 0.20
				parameter:empire = {
					NOT = { has_ethic = "ethic_fanatic_spiritualist" }
				}
			}

			effect = {
				add_modifier = { modifier = embraced_faction days = 3600 }
				parameter:empire = {
					shift_ethic = ethic_spiritualist
					hidden_effect = {
						add_modifier = { modifier = embraced_faction_timer days = 3600 }
						every_pop_faction = {
							limit = { NOT = { is_same_value = root } }
							add_modifier = { modifier = embraced_another_faction days = 3600 }
						}
					}
				}
				hidden_effect = {
					save_event_target_as = TargetFaction
					parameter:empire = {
						every_relation = {
							limit = {
								is_ai = no
								is_country_type = default			
								has_communications = prev
							}
							country_event = { id = factions.2000 }
						}
					}				
				}				
			}
			
			ai_weight = {
				base = 1
				modifier = {
					factor = 0
					support < 0.50
					owner = {
						has_ethic = ethic_spiritualist
					}
				}
				modifier = {
					factor = 0
					NOT = { 
						owner = {
							exists = ruler
							ruler = {
								leader_of_faction = traditionalist
							}
						}
					}
				}
				modifier = {
					factor = 0
					owner = {
						count_pop_factions = {
							count < 4
						}					
					}
				}				
			}
		}
		promote_faction = {
			title = "PROMOTE_FACTION"
			description = "PROMOTE_FACTION_DESC"
			
			potential = {
				exists = owner
				parameter:empire = {
					NOR = {
						has_modifier = suppressed_spiritualist
						has_modifier = promoted_spiritualist
					}
				}
			}

			effect = {
				parameter:empire = {
					add_modifier = { modifier = promoted_spiritualist days = -1 }
				}
			}
			
			ai_weight = {
				base = 0
			}
		}
		cancel_promote_faction = {
			title = "CANCEL_PROMOTE_FACTION"
			description = "CANCEL_PROMOTE_FACTION_DESC"
			
			potential = {
				exists = owner
				parameter:empire = {
					has_modifier = promoted_spiritualist
				}
			}

			effect = {
				parameter:empire = {
					remove_modifier = promoted_spiritualist
				}
			}
			
			ai_weight = {
				base = 0
			}
		}		
		suppress_faction = {
			title = "SUPPRESS_FACTION"
			description = "SUPPRESS_FACTION_DESC"
			
			potential = {
				exists = owner
				parameter:empire = {
					NOR = {
						has_modifier = suppressed_spiritualist
						has_modifier = promoted_spiritualist
						has_modifier = mmbc_suppressed_spiritualist
					}
				}
			}

			effect = {
				add_modifier = { modifier = suppressed_faction days = -1 }
				parameter:empire = {
					add_modifier = { modifier = suppressed_spiritualist days = -1 }
				}
				hidden_effect = {
					owner = {
						country_event = { id = mmbc_factions.4 }
					}
				}
			}
			
			ai_weight = {
				base = 0
			}
		}
		cancel_suppress_faction = {
			title = "CANCEL_SUPPRESS_FACTION"
			description = "CANCEL_SUPPRESS_FACTION_DESC"
			
			potential = {
				exists = owner
				parameter:empire = {
					OR = {
						has_modifier = suppressed_spiritualist
						has_modifier = mmbc_suppressed_spiritualist
					}
				}
			}

			effect = {
				remove_modifier = suppressed_faction
				parameter:empire = {
					remove_modifier = suppressed_spiritualist
					remove_modifier = mmbc_suppressed_spiritualist
				}
			}
			
			ai_weight = {
				base = 0
			}
		}
	}
}