info face="Courier New" size=16 bold=0 italic=0 charset="" unicode=1 stretchH=100 smooth=1 aa=1 padding=3,3,3,3 spacing=1,1 outline=0
common lineHeight=16 base=12 scaleW=256 scaleH=256 pages=1 packed=0 alphaChnl=0 redChnl=4 greenChnl=4 blueChnl=4
page id=0 file="ccs_2.tga"
chars count=243
char id=32   x=179   y=192   width=9     height=7     xoffset=-4    yoffset=12    xadvance=8     page=0  chnl=15
char id=33   x=121   y=144   width=8     height=14    xoffset=0     yoffset=1     xadvance=8     page=0  chnl=15
char id=34   x=28    y=188   width=12    height=10    xoffset=-2    yoffset=1     xadvance=8     page=0  chnl=15
char id=35   x=15    y=37    width=13    height=16    xoffset=-3    yoffset=0     xadvance=8     page=0  chnl=15
char id=36   x=57    y=36    width=12    height=16    xoffset=-2    yoffset=0     xadvance=8     page=0  chnl=15
char id=37   x=30    y=131   width=13    height=14    xoffset=-2    yoffset=1     xadvance=8     page=0  chnl=15
char id=38   x=58    y=161   width=12    height=13    xoffset=-2    yoffset=2     xadvance=8     page=0  chnl=15
char id=39   x=135   y=185   width=9     height=10    xoffset=-1    yoffset=1     xadvance=8     page=0  chnl=15
char id=40   x=155   y=35    width=10    height=16    xoffset=0     yoffset=1     xadvance=8     page=0  chnl=15
char id=41   x=122   y=35    width=10    height=16    xoffset=-2    yoffset=1     xadvance=8     page=0  chnl=15
char id=42   x=198   y=170   width=12    height=11    xoffset=-2    yoffset=1     xadvance=8     page=0  chnl=15
char id=43   x=221   y=142   width=14    height=13    xoffset=-3    yoffset=2     xadvance=8     page=0  chnl=15
char id=44   x=113   y=185   width=10    height=10    xoffset=-2    yoffset=7     xadvance=8     page=0  chnl=15
char id=45   x=136   y=196   width=14    height=7     xoffset=-3    yoffset=5     xadvance=8     page=0  chnl=15
char id=46   x=59    y=199   width=10    height=8     xoffset=-1    yoffset=7     xadvance=8     page=0  chnl=15
char id=47   x=29    y=37    width=13    height=16    xoffset=-3    yoffset=0     xadvance=8     page=0  chnl=15
char id=48   x=184   y=128   width=12    height=14    xoffset=-2    yoffset=1     xadvance=8     page=0  chnl=15
char id=49   x=197   y=128   width=12    height=14    xoffset=-2    yoffset=1     xadvance=8     page=0  chnl=15
char id=50   x=44    y=131   width=13    height=14    xoffset=-3    yoffset=1     xadvance=8     page=0  chnl=15
char id=51   x=65    y=146   width=12    height=14    xoffset=-2    yoffset=1     xadvance=8     page=0  chnl=15
char id=52   x=236   y=127   width=12    height=14    xoffset=-2    yoffset=1     xadvance=8     page=0  chnl=15
char id=53   x=52    y=146   width=12    height=14    xoffset=-2    yoffset=1     xadvance=8     page=0  chnl=15
char id=54   x=156   y=128   width=13    height=14    xoffset=-2    yoffset=1     xadvance=8     page=0  chnl=15
char id=55   x=39    y=146   width=12    height=14    xoffset=-2    yoffset=1     xadvance=8     page=0  chnl=15
char id=56   x=13    y=146   width=12    height=14    xoffset=-2    yoffset=1     xadvance=8     page=0  chnl=15
char id=57   x=128   y=129   width=13    height=14    xoffset=-2    yoffset=1     xadvance=8     page=0  chnl=15
char id=58   x=128   y=172   width=10    height=12    xoffset=-1    yoffset=3     xadvance=8     page=0  chnl=15
char id=59   x=84    y=161   width=11    height=13    xoffset=-2    yoffset=3     xadvance=8     page=0  chnl=15
char id=60   x=146   y=143   width=14    height=13    xoffset=-3    yoffset=2     xadvance=8     page=0  chnl=15
char id=61   x=196   y=182   width=14    height=9     xoffset=-3    yoffset=3     xadvance=8     page=0  chnl=15
char id=62   x=191   y=143   width=14    height=13    xoffset=-3    yoffset=2     xadvance=8     page=0  chnl=15
char id=63   x=26    y=146   width=12    height=14    xoffset=-2    yoffset=1     xadvance=8     page=0  chnl=15
char id=64   x=96    y=36    width=12    height=16    xoffset=-2    yoffset=0     xadvance=8     page=0  chnl=15
char id=65   x=0     y=86    width=16    height=14    xoffset=-4    yoffset=1     xadvance=8     page=0  chnl=15
char id=66   x=0     y=101   width=14    height=14    xoffset=-3    yoffset=1     xadvance=8     page=0  chnl=15
char id=67   x=15    y=101   width=14    height=14    xoffset=-3    yoffset=1     xadvance=8     page=0  chnl=15
char id=68   x=30    y=101   width=14    height=14    xoffset=-3    yoffset=1     xadvance=8     page=0  chnl=15
char id=69   x=45    y=101   width=14    height=14    xoffset=-3    yoffset=1     xadvance=8     page=0  chnl=15
char id=70   x=114   y=129   width=13    height=14    xoffset=-2    yoffset=1     xadvance=8     page=0  chnl=15
char id=71   x=149   y=83    width=14    height=14    xoffset=-3    yoffset=1     xadvance=8     page=0  chnl=15
char id=72   x=225   y=112   width=14    height=14    xoffset=-3    yoffset=1     xadvance=8     page=0  chnl=15
char id=73   x=210   y=127   width=12    height=14    xoffset=-2    yoffset=1     xadvance=8     page=0  chnl=15
char id=74   x=85    y=84    width=15    height=14    xoffset=-3    yoffset=1     xadvance=8     page=0  chnl=15
char id=75   x=60    y=101   width=14    height=14    xoffset=-3    yoffset=1     xadvance=8     page=0  chnl=15
char id=76   x=0     y=131   width=14    height=14    xoffset=-3    yoffset=1     xadvance=8     page=0  chnl=15
char id=77   x=52    y=69    width=16    height=14    xoffset=-4    yoffset=1     xadvance=8     page=0  chnl=15
char id=78   x=210   y=112   width=14    height=14    xoffset=-3    yoffset=1     xadvance=8     page=0  chnl=15
char id=79   x=195   y=113   width=14    height=14    xoffset=-3    yoffset=1     xadvance=8     page=0  chnl=15
char id=80   x=86    y=129   width=13    height=14    xoffset=-2    yoffset=1     xadvance=8     page=0  chnl=15
char id=81   x=207   y=18    width=14    height=16    xoffset=-3    yoffset=1     xadvance=8     page=0  chnl=15
char id=82   x=180   y=113   width=14    height=14    xoffset=-3    yoffset=1     xadvance=8     page=0  chnl=15
char id=83   x=120   y=114   width=14    height=14    xoffset=-3    yoffset=1     xadvance=8     page=0  chnl=15
char id=84   x=90    y=114   width=14    height=14    xoffset=-3    yoffset=1     xadvance=8     page=0  chnl=15
char id=85   x=210   y=97    width=14    height=14    xoffset=-3    yoffset=1     xadvance=8     page=0  chnl=15
char id=86   x=103   y=69    width=16    height=14    xoffset=-4    yoffset=1     xadvance=8     page=0  chnl=15
char id=87   x=133   y=83    width=15    height=14    xoffset=-4    yoffset=1     xadvance=8     page=0  chnl=15
char id=88   x=180   y=98    width=14    height=14    xoffset=-3    yoffset=1     xadvance=8     page=0  chnl=15
char id=89   x=165   y=98    width=14    height=14    xoffset=-3    yoffset=1     xadvance=8     page=0  chnl=15
char id=90   x=0     y=146   width=12    height=14    xoffset=-2    yoffset=1     xadvance=8     page=0  chnl=15
char id=91   x=133   y=35    width=10    height=16    xoffset=0     yoffset=1     xadvance=8     page=0  chnl=15
char id=92   x=43    y=36    width=13    height=16    xoffset=-3    yoffset=0     xadvance=8     page=0  chnl=15
char id=93   x=144   y=35    width=10    height=16    xoffset=-2    yoffset=1     xadvance=8     page=0  chnl=15
char id=94   x=211   y=181   width=12    height=9     xoffset=-2    yoffset=1     xadvance=8     page=0  chnl=15
char id=95   x=87    y=199   width=16    height=7     xoffset=-4    yoffset=12    xadvance=8     page=0  chnl=15
char id=96   x=37    y=199   width=10    height=8     xoffset=-1    yoffset=1     xadvance=8     page=0  chnl=15
char id=97   x=45    y=175   width=14    height=12    xoffset=-3    yoffset=3     xadvance=8     page=0  chnl=15
char id=98   x=120   y=99    width=14    height=14    xoffset=-3    yoffset=1     xadvance=8     page=0  chnl=15
char id=99   x=234   y=156   width=14    height=12    xoffset=-3    yoffset=3     xadvance=8     page=0  chnl=15
char id=100  x=90    y=99    width=14    height=14    xoffset=-3    yoffset=1     xadvance=8     page=0  chnl=15
char id=101  x=159   y=157   width=14    height=12    xoffset=-3    yoffset=3     xadvance=8     page=0  chnl=15
char id=102  x=100   y=129   width=13    height=14    xoffset=-2    yoffset=1     xadvance=8     page=0  chnl=15
char id=103  x=150   y=113   width=14    height=14    xoffset=-3    yoffset=3     xadvance=8     page=0  chnl=15
char id=104  x=135   y=113   width=14    height=14    xoffset=-3    yoffset=1     xadvance=8     page=0  chnl=15
char id=105  x=105   y=114   width=14    height=14    xoffset=-3    yoffset=1     xadvance=8     page=0  chnl=15
char id=106  x=70    y=36    width=12    height=16    xoffset=-3    yoffset=1     xadvance=8     page=0  chnl=15
char id=107  x=75    y=114   width=14    height=14    xoffset=-2    yoffset=1     xadvance=8     page=0  chnl=15
char id=108  x=15    y=116   width=14    height=14    xoffset=-3    yoffset=1     xadvance=8     page=0  chnl=15
char id=109  x=96    y=159   width=16    height=12    xoffset=-4    yoffset=3     xadvance=8     page=0  chnl=15
char id=110  x=204   y=157   width=14    height=12    xoffset=-3    yoffset=3     xadvance=8     page=0  chnl=15
char id=111  x=189   y=157   width=14    height=12    xoffset=-3    yoffset=3     xadvance=8     page=0  chnl=15
char id=112  x=0     y=116   width=14    height=14    xoffset=-3    yoffset=3     xadvance=8     page=0  chnl=15
char id=113  x=135   y=98    width=14    height=14    xoffset=-3    yoffset=3     xadvance=8     page=0  chnl=15
char id=114  x=174   y=157   width=14    height=12    xoffset=-3    yoffset=3     xadvance=8     page=0  chnl=15
char id=115  x=102   y=172   width=12    height=12    xoffset=-2    yoffset=3     xadvance=8     page=0  chnl=15
char id=116  x=161   y=143   width=14    height=13    xoffset=-3    yoffset=2     xadvance=8     page=0  chnl=15
char id=117  x=144   y=158   width=14    height=12    xoffset=-3    yoffset=3     xadvance=8     page=0  chnl=15
char id=118  x=60    y=175   width=14    height=12    xoffset=-3    yoffset=3     xadvance=8     page=0  chnl=15
char id=119  x=129   y=159   width=14    height=12    xoffset=-3    yoffset=3     xadvance=8     page=0  chnl=15
char id=120  x=15    y=175   width=14    height=12    xoffset=-3    yoffset=3     xadvance=8     page=0  chnl=15
char id=121  x=30    y=116   width=14    height=14    xoffset=-3    yoffset=3     xadvance=8     page=0  chnl=15
char id=122  x=115   y=172   width=12    height=12    xoffset=-2    yoffset=3     xadvance=8     page=0  chnl=15
char id=123  x=30    y=70    width=10    height=15    xoffset=-1    yoffset=1     xadvance=8     page=0  chnl=15
char id=124  x=166   y=35    width=8     height=16    xoffset=0     yoffset=1     xadvance=8     page=0  chnl=15
char id=125  x=41    y=70    width=10    height=15    xoffset=-1    yoffset=1     xadvance=8     page=0  chnl=15
char id=126  x=11    y=199   width=14    height=8     xoffset=-3    yoffset=4     xadvance=8     page=0  chnl=15
char id=160  x=189   y=192   width=9     height=7     xoffset=-4    yoffset=12    xadvance=8     page=0  chnl=15
char id=161  x=112   y=144   width=8     height=14    xoffset=0     yoffset=3     xadvance=8     page=0  chnl=15
char id=162  x=45    y=161   width=12    height=13    xoffset=-2    yoffset=2     xadvance=8     page=0  chnl=15
char id=163  x=75    y=99    width=14    height=14    xoffset=-3    yoffset=1     xadvance=8     page=0  chnl=15
char id=164  x=75    y=175   width=13    height=12    xoffset=-2    yoffset=2     xadvance=8     page=0  chnl=15
char id=165  x=105   y=99    width=14    height=14    xoffset=-3    yoffset=1     xadvance=8     page=0  chnl=15
char id=166  x=175   y=35    width=8     height=16    xoffset=0     yoffset=1     xadvance=8     page=0  chnl=15
char id=167  x=15    y=70    width=14    height=15    xoffset=-3    yoffset=1     xadvance=8     page=0  chnl=15
char id=168  x=166   y=193   width=12    height=7     xoffset=-2    yoffset=1     xadvance=8     page=0  chnl=15
char id=169  x=17    y=86    width=16    height=14    xoffset=-4    yoffset=1     xadvance=8     page=0  chnl=15
char id=170  x=15    y=188   width=12    height=10    xoffset=-2    yoffset=1     xadvance=8     page=0  chnl=15
char id=171  x=154   y=171   width=14    height=11    xoffset=-3    yoffset=4     xadvance=8     page=0  chnl=15
char id=172  x=211   y=170   width=14    height=10    xoffset=-3    yoffset=5     xadvance=8     page=0  chnl=15
char id=173  x=121   y=196   width=14    height=7     xoffset=-3    yoffset=5     xadvance=8     page=0  chnl=15
char id=174  x=120   y=68    width=16    height=14    xoffset=-4    yoffset=1     xadvance=8     page=0  chnl=15
char id=175  x=104   y=196   width=16    height=7     xoffset=-4    yoffset=-1    xadvance=8     page=0  chnl=15
char id=176  x=67    y=188   width=11    height=10    xoffset=-1    yoffset=0     xadvance=8     page=0  chnl=15
char id=177  x=195   y=98    width=14    height=14    xoffset=-3    yoffset=1     xadvance=8     page=0  chnl=15
char id=178  x=79    y=188   width=11    height=10    xoffset=-2    yoffset=1     xadvance=8     page=0  chnl=15
char id=179  x=124   y=185   width=10    height=10    xoffset=-1    yoffset=1     xadvance=8     page=0  chnl=15
char id=180  x=48    y=199   width=10    height=8     xoffset=-1    yoffset=1     xadvance=8     page=0  chnl=15
char id=181  x=225   y=97    width=14    height=14    xoffset=-3    yoffset=3     xadvance=8     page=0  chnl=15
char id=182  x=184   y=35    width=14    height=15    xoffset=-3    yoffset=1     xadvance=8     page=0  chnl=15
char id=183  x=199   y=192   width=9     height=7     xoffset=1     yoffset=4     xadvance=8     page=0  chnl=15
char id=184  x=0     y=199   width=10    height=9     xoffset=-1    yoffset=8     xadvance=8     page=0  chnl=15
char id=185  x=91    y=188   width=10    height=10    xoffset=-1    yoffset=1     xadvance=8     page=0  chnl=15
char id=186  x=41    y=188   width=12    height=10    xoffset=-2    yoffset=1     xadvance=8     page=0  chnl=15
char id=187  x=139   y=172   width=14    height=11    xoffset=-3    yoffset=4     xadvance=8     page=0  chnl=15
char id=188  x=86    y=69    width=16    height=14    xoffset=-4    yoffset=1     xadvance=8     page=0  chnl=15
char id=189  x=222   y=67    width=16    height=14    xoffset=-4    yoffset=1     xadvance=8     page=0  chnl=15
char id=190  x=101   y=84    width=15    height=14    xoffset=-3    yoffset=1     xadvance=8     page=0  chnl=15
char id=191  x=223   y=127   width=12    height=14    xoffset=-2    yoffset=3     xadvance=8     page=0  chnl=15
char id=192  x=17    y=0     width=16    height=17    xoffset=-4    yoffset=-2    xadvance=8     page=0  chnl=15
char id=193  x=34    y=0     width=16    height=17    xoffset=-4    yoffset=-2    xadvance=8     page=0  chnl=15
char id=194  x=51    y=0     width=16    height=17    xoffset=-4    yoffset=-2    xadvance=8     page=0  chnl=15
char id=195  x=68    y=0     width=16    height=17    xoffset=-4    yoffset=-2    xadvance=8     page=0  chnl=15
char id=196  x=99    y=18    width=16    height=16    xoffset=-4    yoffset=-1    xadvance=8     page=0  chnl=15
char id=197  x=0     y=0     width=16    height=18    xoffset=-4    yoffset=-3    xadvance=8     page=0  chnl=15
char id=198  x=69    y=69    width=16    height=14    xoffset=-4    yoffset=1     xadvance=8     page=0  chnl=15
char id=199  x=235   y=0     width=14    height=17    xoffset=-3    yoffset=1     xadvance=8     page=0  chnl=15
char id=200  x=115   y=0     width=14    height=17    xoffset=-3    yoffset=-2    xadvance=8     page=0  chnl=15
char id=201  x=190   y=0     width=14    height=17    xoffset=-3    yoffset=-2    xadvance=8     page=0  chnl=15
char id=202  x=220   y=0     width=14    height=17    xoffset=-3    yoffset=-2    xadvance=8     page=0  chnl=15
char id=203  x=132   y=18    width=14    height=16    xoffset=-3    yoffset=-1    xadvance=8     page=0  chnl=15
char id=204  x=86    y=18    width=12    height=17    xoffset=-2    yoffset=-2    xadvance=8     page=0  chnl=15
char id=205  x=73    y=18    width=12    height=17    xoffset=-2    yoffset=-2    xadvance=8     page=0  chnl=15
char id=206  x=60    y=18    width=12    height=17    xoffset=-2    yoffset=-2    xadvance=8     page=0  chnl=15
char id=207  x=109   y=35    width=12    height=16    xoffset=-2    yoffset=-1    xadvance=8     page=0  chnl=15
char id=208  x=117   y=84    width=15    height=14    xoffset=-4    yoffset=1     xadvance=8     page=0  chnl=15
char id=209  x=30    y=18    width=14    height=17    xoffset=-3    yoffset=-2    xadvance=8     page=0  chnl=15
char id=210  x=85    y=0     width=14    height=17    xoffset=-3    yoffset=-2    xadvance=8     page=0  chnl=15
char id=211  x=45    y=18    width=14    height=17    xoffset=-3    yoffset=-2    xadvance=8     page=0  chnl=15
char id=212  x=15    y=19    width=14    height=17    xoffset=-3    yoffset=-2    xadvance=8     page=0  chnl=15
char id=213  x=0     y=19    width=14    height=17    xoffset=-3    yoffset=-2    xadvance=8     page=0  chnl=15
char id=214  x=162   y=18    width=14    height=16    xoffset=-3    yoffset=-1    xadvance=8     page=0  chnl=15
char id=215  x=54    y=188   width=12    height=10    xoffset=-2    yoffset=3     xadvance=8     page=0  chnl=15
char id=216  x=240   y=51    width=14    height=15    xoffset=-3    yoffset=1     xadvance=8     page=0  chnl=15
char id=217  x=175   y=0     width=14    height=17    xoffset=-3    yoffset=-2    xadvance=8     page=0  chnl=15
char id=218  x=205   y=0     width=14    height=17    xoffset=-3    yoffset=-2    xadvance=8     page=0  chnl=15
char id=219  x=100   y=0     width=14    height=17    xoffset=-3    yoffset=-2    xadvance=8     page=0  chnl=15
char id=220  x=0     y=37    width=14    height=16    xoffset=-3    yoffset=-1    xadvance=8     page=0  chnl=15
char id=221  x=145   y=0     width=14    height=17    xoffset=-3    yoffset=-2    xadvance=8     page=0  chnl=15
char id=222  x=170   y=128   width=13    height=14    xoffset=-2    yoffset=1     xadvance=8     page=0  chnl=15
char id=223  x=72    y=131   width=13    height=14    xoffset=-3    yoffset=1     xadvance=8     page=0  chnl=15
char id=224  x=0     y=70    width=14    height=15    xoffset=-3    yoffset=0     xadvance=8     page=0  chnl=15
char id=225  x=225   y=51    width=14    height=15    xoffset=-3    yoffset=0     xadvance=8     page=0  chnl=15
char id=226  x=210   y=51    width=14    height=15    xoffset=-3    yoffset=0     xadvance=8     page=0  chnl=15
char id=227  x=60    y=53    width=14    height=15    xoffset=-3    yoffset=0     xadvance=8     page=0  chnl=15
char id=228  x=179   y=83    width=14    height=14    xoffset=-3    yoffset=1     xadvance=8     page=0  chnl=15
char id=229  x=222   y=18    width=14    height=16    xoffset=-3    yoffset=-1    xadvance=8     page=0  chnl=15
char id=230  x=113   y=159   width=15    height=12    xoffset=-4    yoffset=3     xadvance=8     page=0  chnl=15
char id=231  x=15    y=54    width=14    height=15    xoffset=-3    yoffset=3     xadvance=8     page=0  chnl=15
char id=232  x=0     y=54    width=14    height=15    xoffset=-3    yoffset=0     xadvance=8     page=0  chnl=15
char id=233  x=229   y=35    width=14    height=15    xoffset=-3    yoffset=0     xadvance=8     page=0  chnl=15
char id=234  x=199   y=35    width=14    height=15    xoffset=-3    yoffset=0     xadvance=8     page=0  chnl=15
char id=235  x=150   y=98    width=14    height=14    xoffset=-3    yoffset=1     xadvance=8     page=0  chnl=15
char id=236  x=214   y=35    width=14    height=15    xoffset=-3    yoffset=0     xadvance=8     page=0  chnl=15
char id=237  x=30    y=54    width=14    height=15    xoffset=-3    yoffset=0     xadvance=8     page=0  chnl=15
char id=238  x=45    y=53    width=14    height=15    xoffset=-3    yoffset=0     xadvance=8     page=0  chnl=15
char id=239  x=45    y=116   width=14    height=14    xoffset=-3    yoffset=1     xadvance=8     page=0  chnl=15
char id=240  x=60    y=116   width=14    height=14    xoffset=-3    yoffset=1     xadvance=8     page=0  chnl=15
char id=241  x=75    y=53    width=14    height=15    xoffset=-3    yoffset=0     xadvance=8     page=0  chnl=15
char id=242  x=195   y=51    width=14    height=15    xoffset=-3    yoffset=0     xadvance=8     page=0  chnl=15
char id=243  x=90    y=53    width=14    height=15    xoffset=-3    yoffset=0     xadvance=8     page=0  chnl=15
char id=244  x=105   y=53    width=14    height=15    xoffset=-3    yoffset=0     xadvance=8     page=0  chnl=15
char id=245  x=120   y=52    width=14    height=15    xoffset=-3    yoffset=0     xadvance=8     page=0  chnl=15
char id=246  x=239   y=82    width=14    height=14    xoffset=-3    yoffset=1     xadvance=8     page=0  chnl=15
char id=247  x=176   y=143   width=14    height=13    xoffset=-3    yoffset=2     xadvance=8     page=0  chnl=15
char id=248  x=219   y=157   width=14    height=12    xoffset=-3    yoffset=3     xadvance=8     page=0  chnl=15
char id=249  x=135   y=52    width=14    height=15    xoffset=-3    yoffset=0     xadvance=8     page=0  chnl=15
char id=250  x=150   y=52    width=14    height=15    xoffset=-3    yoffset=0     xadvance=8     page=0  chnl=15
char id=251  x=165   y=52    width=14    height=15    xoffset=-3    yoffset=0     xadvance=8     page=0  chnl=15
char id=252  x=165   y=113   width=14    height=14    xoffset=-3    yoffset=1     xadvance=8     page=0  chnl=15
char id=253  x=130   y=0     width=14    height=17    xoffset=-3    yoffset=0     xadvance=8     page=0  chnl=15
char id=254  x=192   y=18    width=14    height=16    xoffset=-3    yoffset=1     xadvance=8     page=0  chnl=15
char id=255  x=147   y=18    width=14    height=16    xoffset=-3    yoffset=1     xadvance=8     page=0  chnl=15
char id=8592 x=145   y=184   width=16    height=9     xoffset=-4    yoffset=5     xadvance=8     page=0  chnl=15
char id=8593 x=90    y=144   width=10    height=14    xoffset=-1    yoffset=3     xadvance=8     page=0  chnl=15
char id=8594 x=162   y=183   width=16    height=9     xoffset=-4    yoffset=5     xadvance=8     page=0  chnl=15
char id=8595 x=101   y=144   width=10    height=14    xoffset=-1    yoffset=3     xadvance=8     page=0  chnl=15
char id=8596 x=179   y=182   width=16    height=9     xoffset=-4    yoffset=6     xadvance=8     page=0  chnl=15
char id=8597 x=78    y=146   width=11    height=14    xoffset=-1    yoffset=3     xadvance=8     page=0  chnl=15
char id=8616 x=244   y=35    width=11    height=15    xoffset=-1    yoffset=3     xadvance=8     page=0  chnl=15
char id=8706 x=58    y=131   width=13    height=14    xoffset=-3    yoffset=1     xadvance=8     page=0  chnl=15
char id=8710 x=236   y=142   width=14    height=13    xoffset=-3    yoffset=2     xadvance=8     page=0  chnl=15
char id=8719 x=116   y=18    width=15    height=16    xoffset=-4    yoffset=1     xadvance=8     page=0  chnl=15
char id=8721 x=237   y=18    width=14    height=16    xoffset=-3    yoffset=1     xadvance=8     page=0  chnl=15
char id=8722 x=151   y=194   width=14    height=7     xoffset=-3    yoffset=5     xadvance=8     page=0  chnl=15
char id=8725 x=241   y=169   width=14    height=10    xoffset=-3    yoffset=3     xadvance=8     page=0  chnl=15
char id=8729 x=26    y=199   width=10    height=8     xoffset=-1    yoffset=4     xadvance=8     page=0  chnl=15
char id=8730 x=160   y=0     width=14    height=17    xoffset=-3    yoffset=-1    xadvance=8     page=0  chnl=15
char id=8734 x=0     y=188   width=14    height=10    xoffset=-3    yoffset=3     xadvance=8     page=0  chnl=15
char id=8735 x=68    y=84    width=16    height=14    xoffset=-4    yoffset=1     xadvance=8     page=0  chnl=15
char id=8745 x=240   y=112   width=14    height=14    xoffset=-3    yoffset=1     xadvance=8     page=0  chnl=15
char id=8747 x=83    y=36    width=12    height=16    xoffset=-2    yoffset=1     xadvance=8     page=0  chnl=15
char id=8776 x=226   y=170   width=14    height=10    xoffset=-3    yoffset=3     xadvance=8     page=0  chnl=15
char id=8800 x=180   y=52    width=14    height=15    xoffset=-3    yoffset=0     xadvance=8     page=0  chnl=15
char id=8801 x=169   y=170   width=14    height=11    xoffset=-3    yoffset=3     xadvance=8     page=0  chnl=15
char id=8804 x=15    y=131   width=14    height=14    xoffset=-3    yoffset=0     xadvance=8     page=0  chnl=15
char id=8805 x=164   y=83    width=14    height=14    xoffset=-3    yoffset=0     xadvance=8     page=0  chnl=15
char id=9632 x=51    y=86    width=16    height=14    xoffset=-4    yoffset=1     xadvance=8     page=0  chnl=15
char id=9633 x=34    y=86    width=16    height=14    xoffset=-4    yoffset=1     xadvance=8     page=0  chnl=15
char id=9642 x=102   y=185   width=10    height=10    xoffset=-1    yoffset=3     xadvance=8     page=0  chnl=15
char id=9643 x=224   y=181   width=11    height=9     xoffset=-1    yoffset=4     xadvance=8     page=0  chnl=15
char id=9644 x=70    y=199   width=16    height=7     xoffset=-4    yoffset=5     xadvance=8     page=0  chnl=15
char id=9650 x=240   y=97    width=14    height=14    xoffset=-3    yoffset=1     xadvance=8     page=0  chnl=15
char id=9658 x=239   y=67    width=16    height=14    xoffset=-4    yoffset=1     xadvance=8     page=0  chnl=15
char id=9660 x=194   y=83    width=14    height=14    xoffset=-3    yoffset=1     xadvance=8     page=0  chnl=15
char id=9668 x=205   y=67    width=16    height=14    xoffset=-4    yoffset=1     xadvance=8     page=0  chnl=15
char id=9674 x=142   y=128   width=13    height=14    xoffset=-3    yoffset=1     xadvance=8     page=0  chnl=15
char id=9675 x=30    y=175   width=14    height=12    xoffset=-3    yoffset=2     xadvance=8     page=0  chnl=15
char id=9676 x=30    y=161   width=14    height=13    xoffset=-3    yoffset=2     xadvance=8     page=0  chnl=15
char id=9679 x=184   y=170   width=13    height=11    xoffset=-3    yoffset=3     xadvance=8     page=0  chnl=15
char id=9688 x=0     y=175   width=14    height=12    xoffset=-3    yoffset=3     xadvance=8     page=0  chnl=15
char id=9689 x=130   y=144   width=15    height=13    xoffset=-4    yoffset=2     xadvance=8     page=0  chnl=15
char id=9702 x=236   y=181   width=10    height=9     xoffset=-1    yoffset=4     xadvance=8     page=0  chnl=15
char id=9786 x=188   y=68    width=16    height=14    xoffset=-4    yoffset=1     xadvance=8     page=0  chnl=15
char id=9787 x=171   y=68    width=16    height=14    xoffset=-4    yoffset=1     xadvance=8     page=0  chnl=15
char id=9788 x=154   y=68    width=16    height=14    xoffset=-4    yoffset=1     xadvance=8     page=0  chnl=15
char id=9792 x=89    y=175   width=12    height=12    xoffset=-2    yoffset=2     xadvance=8     page=0  chnl=15
char id=9794 x=206   y=143   width=14    height=13    xoffset=-3    yoffset=0     xadvance=8     page=0  chnl=15
char id=9824 x=209   y=82    width=14    height=14    xoffset=-3    yoffset=1     xadvance=8     page=0  chnl=15
char id=9827 x=137   y=68    width=16    height=14    xoffset=-4    yoffset=1     xadvance=8     page=0  chnl=15
char id=9829 x=0     y=161   width=14    height=13    xoffset=-3    yoffset=2     xadvance=8     page=0  chnl=15
char id=9830 x=15    y=161   width=14    height=13    xoffset=-3    yoffset=2     xadvance=8     page=0  chnl=15
char id=9834 x=71    y=161   width=12    height=13    xoffset=-2    yoffset=2     xadvance=8     page=0  chnl=15
char id=9835 x=224   y=82    width=14    height=14    xoffset=-3    yoffset=1     xadvance=8     page=0  chnl=15
char id=9839 x=177   y=18    width=14    height=16    xoffset=-3    yoffset=0     xadvance=8     page=0  chnl=15
