namespace = ex_technology_events

#### UTILITIES

## Armor
country_event = {
	id = ex_technology_events.101
	hide_window = yes
	is_triggered_only = yes

	immediate = {
		if = {
			limit = { 
				NOT = {	has_country_flag = all_armor_researched }						
			}		
			if = { 
				limit = { 
					AND = {
						has_technology = "nhsc_tech_adv_armor_2"
						NOT = { has_technology = "nhsc_tech_adv_armor_1" }
					}	
				}				
				give_technology = { message = no tech = nhsc_tech_adv_armor_1 }	
			}			
			if = { 
				limit = { 
					AND = {
						has_technology = "nhsc_tech_adv_armor_1"
						NOT = { has_technology = "tech_ship_armor_5" }
					}	
				}				
				give_technology = { message = no tech = tech_ship_armor_5 }	
			}									
			if = { 
				limit = { 
					AND = {
						has_technology = "tech_dragon_armor"
						NOT = { has_technology = "tech_ship_armor_5" }
					}	
				}				
				give_technology = { message = no tech = tech_ship_armor_5 }	
			}	
			if = { 
				limit = { 
					AND = {
						has_technology = "tech_ship_armor_5"
						NOT = { has_technology = "tech_ship_armor_4" }
					}	
				}				
				give_technology = { message = no tech = tech_ship_armor_4 }	
			}				
			if = { 
				limit = { 
					AND = {
						has_technology = "tech_ship_armor_4"
						NOT = { has_technology = "tech_ship_armor_3" }
					}	
				}				
				give_technology = { message = no tech = tech_ship_armor_3 }	
			}				
			if = { 
				limit = { 
					AND = {
						has_technology = "tech_ship_armor_3"
						NOT = { has_technology = "tech_ship_armor_2" }
					}	
				}				
				give_technology = { message = no tech = tech_ship_armor_2 }	
			}							
			if = { 
				limit = { 
					AND = {
						has_technology = "tech_ship_armor_2"
						NOT = { has_technology = "tech_ship_armor_1" }
					}	
				}				
				give_technology = { message = no tech = tech_ship_armor_1 }	
			}
			#Flag
			if = { 
				limit = { 
					AND = {			
						has_technology = "nhsc_tech_adv_armor_2"
						has_technology = "nhsc_tech_adv_armor_1"
						has_technology = "tech_ship_armor_5"
						has_technology = "tech_ship_armor_4"
						has_technology = "tech_ship_armor_3"
						has_technology = "tech_ship_armor_2"
						has_technology = "tech_ship_armor_1"						
					}	
				}				
				set_country_flag = all_armor_researched
			}			
		}	
	}
}

## Special Armor
country_event = {
	id = ex_technology_events.102
	hide_window = yes
	is_triggered_only = yes

	immediate = {
		if = {
			limit = { 
				NOT = {	has_country_flag = all_special_armor_researched }						
			}
			if = { 
				limit = { 
					AND = {
						has_technology = "nhsc_tech_nanodragonscales"
						NOT = { has_technology = "tech_dragon_armor" }
					}	
				}				
				give_technology = { message = no tech = tech_dragon_armor }	
			}
			#Nanite Armors
			if = { 
				limit = { 
					AND = {
						has_technology = "nhsc_tech_nanodragonscales"
						NOT = { has_technology = "nhsc_tech_nanoarmor_2" }
					}	
				}				
				give_technology = { message = no tech = nhsc_tech_nanoarmor_2 }	
			}				
			if = { 
				limit = { 
					AND = {
						has_technology = "nhsc_tech_nanoarmor_2"
						NOT = { has_technology = "nhsc_tech_nanoarmor_1" }
					}	
				}				
				give_technology = { message = no tech = nhsc_tech_nanoarmor_1 }	
			}									
			#Shield Armors
			#if = { 
			#	limit = { 
			#		AND = {
			#			has_technology = "nhsc_tech_shieldarmor_3"
			#			NOT = { has_technology = "nhsc_tech_shieldarmor_2" }
			#		}	
			#	}				
			#	give_technology = { message = no tech = nhsc_tech_shieldarmor_2 }	
			#}	
			#if = { 
			#	limit = { 
			#		AND = {
			#			has_technology = "nhsc_tech_shieldarmor_2"
			#			NOT = { has_technology = "nhsc_tech_shieldarmor_1" }
			#		}	
			#	}				
			#	give_technology = { message = no tech = nhsc_tech_shieldarmor_1 }	
			#}				
			#Flag
			if = { 
				limit = { 
					AND = {			
						has_technology = "nhsc_tech_nanodragonscales"
						has_technology = "nhsc_tech_nanoarmor_2"
						has_technology = "nhsc_tech_nanoarmor_1"
						#has_technology = "nhsc_tech_shieldarmor_3"
						#has_technology = "nhsc_tech_shieldarmor_2"
						#has_technology = "nhsc_tech_shieldarmor_1"					
					}	
				}				
				set_country_flag = all_special_armor_researched
			}			
		}	
	}
}
	
## Shields
country_event = {
	id = ex_technology_events.201
	hide_window = yes
	is_triggered_only = yes

	immediate = {
		if = {
			limit = { 
				NOT = {	has_country_flag = all_shields_researched }						
			}
			if = { 
				limit = { 
					AND = {
						has_technology = "nhsc_tech_waveforcearmor"
						NOT = { has_technology = "nhsc_tech_advshields_2" }
					}	
				}				
				give_technology = { message = no tech = nhsc_tech_advshields_2 }	
			}
			if = { 
				limit = { 
					AND = {
						has_technology = "nhsc_tech_advshields_2"
						NOT = { has_technology = "nhsc_tech_advshields_1" }
					}	
				}				
				give_technology = { message = no tech = nhsc_tech_advshields_1 }	
			}
			if = { 
				limit = { 
					AND = {
						has_technology = "nhsc_tech_advshields_1"
						NOT = { has_technology = "tech_shields_5" }
					}	
				}				
				give_technology = { message = no tech = tech_shields_5 }	
			}			
			if = { 
				limit = { 
					AND = {
						has_technology = "tech_shields_5"
						NOT = { has_technology = "tech_shields_4" }
					}	
				}				
				give_technology = { message = no tech = tech_shields_4 }	
			}								
			if = { 
				limit = { 
					AND = {
						has_technology = "tech_shields_4"
						NOT = { has_technology = "tech_shields_3" }
					}	
				}				
				give_technology = { message = no tech = tech_shields_3 }	
			}									
			if = { 
				limit = { 
					AND = {
						has_technology = "tech_shields_3"
						NOT = { has_technology = "tech_shields_2" }
					}	
				}				
				give_technology = { message = no tech = tech_shields_2 }	
			}									
			if = { 
				limit = { 
					AND = {
						has_technology = "tech_shields_2"
						NOT = { has_technology = "tech_shields_1" }
					}	
				}				
				give_technology = { message = no tech = tech_shields_1 }	
			}		
			if = { 
				limit = { 
					has_technology = "nhsc_tech_waveforcearmor"
					has_technology = "nhsc_tech_advshields_2"
					has_technology = "nhsc_tech_advshields_1"
					has_technology = "tech_shields_5"
					has_technology = "tech_shields_4"
					has_technology = "tech_shields_3"
					has_technology = "tech_shields_2"
					has_technology = "tech_shields_1"						
				}				
				set_country_flag = all_shields_researched
			}			
		}
	}
}

## Special Shields
country_event = {
	id = ex_technology_events.202
	hide_window = yes
	is_triggered_only = yes

	immediate = {
		if = {
			limit = { 
				NOT = {	has_country_flag = all_special_shields_researched }						
			}
			#Enigmatic Shields
			if = { 
				limit = { 
					AND = {
						has_technology = "nhsc_tech_enigmatic_shield_2"
						NOT = { has_technology = "tech_enigmatic_deflector" }
					}	
				}				
				give_technology = { message = no tech = tech_enigmatic_deflector }	
			}
			if = { 
				limit = { 
					AND = {
						has_technology = "nhsc_tech_enigmatic_shield_2"
						NOT = { has_technology = "nhsc_tech_advshields_2" }
					}	
				}				
				give_technology = { message = no tech = nhsc_tech_advshields_2	}
				country_event = { id = ex_technology_events.201 }				
			}
			if = { 
				limit = { 
					AND = {
						has_technology = "tech_enigmatic_deflector"
						NOT = { has_technology = "tech_shields_5" }
					}	
				}				
				give_technology = { message = no tech = tech_shields_5	}
				country_event = { id = ex_technology_events.201 }				
			}
			#Psionic Shields
			if = { 
				limit = { 
					AND = {
						has_technology = "nhsc_tech_atfield"
						NOT = { has_technology = "tech_psionic_shield" }
					}	
				}				
				give_technology = { message = no tech = tech_psionic_shield }	
			}
			if = { 
				limit = { 
					AND = {
						has_technology = "nhsc_tech_atfield"
						NOT = { has_technology = "nhsc_tech_advshields_2" }
					}	
				}				
				give_technology = { message = no tech = nhsc_tech_advshields_2 }
				country_event = { id = ex_technology_events.201 }
			}	
			if = { 
				limit = { 
					AND = {
						has_technology = "tech_psionic_shield"
						NOT = { has_technology = "tech_shields_5" }
					}	
				}				
				give_technology = { message = no tech = tech_shields_5 }
				country_event = { id = ex_technology_events.201 }
			}
			#Cyclonic Shields
			if = { 
				limit = { 
					AND = {
						has_technology = "nhsc_tech_cyclonicshields_3"
						NOT = { has_technology = "nhsc_tech_cyclonicshields_2" }
					}	
				}				
				give_technology = { message = no tech = nhsc_tech_cyclonicshields_2 }	
			}
			if = { 
				limit = { 
					AND = {
						has_technology = "nhsc_tech_cyclonicshields_2"
						NOT = { has_technology = "nhsc_tech_cyclonicshields_1" }
					}	
				}				
				give_technology = { message = no tech = nhsc_tech_cyclonicshields_1 }	
			}
			if = { 
				limit = { 
					AND = {
						has_technology = "nhsc_tech_cyclonicshields_1"
						NOT = { has_technology = "tech_shields_4" }
					}	
				}				
				give_technology = { message = no tech = tech_shields_4 }
				country_event = { id = ex_technology_events.201 }
			}			
			if = { 
				limit = { 
					AND = {
						has_technology = "nhsc_tech_cyclonicshields_1"
						NOT = { has_technology = "tech_shield_rechargers_1" }
					}	
				}				
				give_technology = { message = no tech = tech_shield_rechargers_1 }	
			}									
			
			if = { 
				limit = { 
					has_technology = "nhsc_tech_enigmatic_shield_2"
					has_technology = "tech_enigmatic_deflector"
					has_technology = "nhsc_tech_atfield"
					has_technology = "tech_psionic_shield"
					has_technology = "nhsc_tech_cyclonicshields_3"
					has_technology = "nhsc_tech_cyclonicshields_2"
					has_technology = "nhsc_tech_cyclonicshields_1"						
				}				
				set_country_flag = all_special_shields_researched
			}
		}
	}
}

## Thrusters
country_event = {
	id = ex_technology_events.301
	hide_window = yes
	is_triggered_only = yes

	immediate = {
		if = {
			limit = { 
				NOT = {	has_country_flag = all_thrusters_researched }						
			}
			if = { 
				limit = { 
					AND = {
						has_technology = "nhsc_tech_gravmanipulationengines"
						NOT = { has_technology = "nhsc_tech_antimatterthrusters" }
					}	
				}				
				give_technology = { message = no tech = nhsc_tech_antimatterthrusters }	
			}	
			if = { 
				limit = { 
					AND = {
						has_technology = "nhsc_tech_antimatterthrusters"
						NOT = { has_technology = "tech_thrusters_4" }
					}	
				}				
				give_technology = { message = no tech = tech_thrusters_4 }	
			}			
			if = { 
				limit = { 
					AND = {
						has_technology = "tech_thrusters_4"
						NOT = { has_technology = "tech_thrusters_3" }
					}	
				}				
				give_technology = { message = no tech = tech_thrusters_3 }	
			}				
			if = { 
				limit = { 
					AND = {
						has_technology = "tech_thrusters_3"
						NOT = { has_technology = "tech_thrusters_2" }
					}	
				}				
				give_technology = { message = no tech = tech_thrusters_2 }	
			}							
			if = { 
				limit = { 
					AND = {
						has_technology = "nhsc_tech_gravmanipulationengines"
						has_technology = "nhsc_tech_antimatterthrusters"
						has_technology = "tech_thrusters_4"
						has_technology = "tech_thrusters_3"
						has_technology = "tech_thrusters_2"					
					}	
				}				
				set_country_flag = all_thrusters_researched
			}											
		}
	}
}
	
## Sensors
country_event = {
	id = ex_technology_events.401
	hide_window = yes
	is_triggered_only = yes

	immediate = {
		if = {
			limit = { 
				NOT = {	has_country_flag = all_sensors_researched }						
			}		
			if = { 
				limit = { 
					AND = {
						has_technology = "nhsc_tech_psisensors"
						NOT = { has_technology = "nhsc_tech_improvedtachyonsensors" }
					}	
				}				
				give_technology = { message = no tech = nhsc_tech_improvedtachyonsensors }	
			}	
			if = { 
				limit = { 
					AND = {
						has_technology = "nhsc_tech_stringtheory"
						NOT = { has_technology = "nhsc_tech_improvedtachyonsensors" }
					}	
				}				
				give_technology = { message = no tech = nhsc_tech_improvedtachyonsensors }	
			}				
			if = { 
				limit = { 
					AND = {
						has_technology = "nhsc_tech_improvedtachyonsensors"
						NOT = { has_technology = "tech_sensors_4" }
					}	
				}				
				give_technology = { message = no tech = tech_sensors_4 }	
			}				
			if = { 
				limit = { 
					AND = {
						has_technology = "tech_sensors_4"
						NOT = { has_technology = "tech_sensors_3" }
					}	
				}				
				give_technology = { message = no tech = tech_sensors_3 }	
			}
			if = { 
				limit = { 
					AND = {
						has_technology = "tech_sensors_3"
						NOT = { has_technology = "tech_sensors_2" }
					}	
				}				
				give_technology = { message = no tech = tech_sensors_2 }	
			}		
			if = { 
				limit = { 
					AND = {
						OR = {
							has_technology = "nhsc_tech_psisensors"
							has_technology = "nhsc_tech_stringtheory"
						}
						has_technology = "nhsc_tech_improvedtachyonsensors"
						has_technology = "tech_sensors_4"
						has_technology = "tech_sensors_3"
						has_technology = "tech_sensors_2"					
					}	
				}				
				set_country_flag = all_sensors_researched
			}
		}
	}
}	
	
###### Combat Computers

country_event = {
	id = ex_technology_events.5
	hide_window = yes
	is_triggered_only = yes

	immediate = {
		if = {	
			limit = { 
				OR = {
					NOR = { 
						has_global_flag = "ex_components_active_active"
						has_global_flag = "ex_ships_and_stations_active"
						has_country_flag = all_computers_researched_vanilla
					}
					AND = { 
						OR = { 
							has_global_flag = "ex_ships_and_stations_active"
							has_global_flag = "ex_components_active_active"
						}	
						NOT = { has_country_flag = all_computers_researched_ex }
					}
				}
			}	
			if = { 
				limit = { 
					AND = {
						OR = { 
							has_global_flag = "ex_components_active_active"
							has_global_flag = "ex_ships_and_stations_active"
						}	
						OR = { 
							has_technology = "tech_enigmatic_decoder"
							has_technology = "tech_enigmatic_encoder"
						}	
						NOT = { has_technology = "tech_combat_computers_3" }
					}	
				}				
				give_technology = { message = no tech = tech_combat_computers_3 }	
			}				
			if = { 
				limit = { 
					AND = {
						has_technology = "tech_combat_computers_3"
						NOT = { has_technology = "tech_combat_computers_2" }
					}	
				}				
				give_technology = { message = no tech = tech_combat_computers_2 }	
			}							
			if = { 
				limit = { 
					AND = {					
						has_technology = "tech_combat_computers_2"
						NOT = { has_technology = "tech_combat_computers_1" }
					}	
				}				
				give_technology = { message = no tech = tech_combat_computers_1 }	
			}
			if = { 
				limit = { 
					AND = {
						OR = {
							has_global_flag = "ex_components_active_active"
							has_global_flag = "ex_ships_and_stations_active"
						}	
						OR = { 
							has_technology = "tech_enigmatic_decoder"
							has_technology = "tech_enigmatic_encoder"
						}	
						has_technology = "tech_combat_computers_3"
						has_technology = "tech_combat_computers_2"
						has_technology = "tech_combat_computers_1"						
					}	
				}				
				set_country_flag = all_computers_researched_ex
			}			
			if = { 
				limit = { 
					AND = {
						NOR = { 
							has_global_flag = "ex_ships_and_stations_active"
							has_global_flag = "ex_components_active_active"
						}												
						has_technology = "tech_combat_computers_3"
						has_technology = "tech_combat_computers_2"
						has_technology = "tech_combat_computers_1"						
					}	
				}				
				set_country_flag = all_computers_researched_vanilla
			}						
		}
	}	
}
	
###### Vanilla Crystal Plating Techs

country_event = {
	id = ex_technology_events.8
	hide_window = yes
	is_triggered_only = yes

	immediate = {
		if = {
			limit = { 
				OR = { 
					AND = { 
						has_global_flag = "ex_components_active_active"
						NOT = { has_country_flag = all_crystal_ex }
					}																				
					NOR = { 
						has_global_flag = "ex_components_active_active"
						has_country_flag = all_crystal_armor_vanilla						
					}																				
				}	
			}
			if = { 
				limit = { 
					AND = {
						has_technology = "tech_crystal_armor_2"
						has_global_flag = "ex_components_active_active"					
						NOT = { has_technology = tech_red_crystal_weapon_1 }						
					}	
				}				
				give_technology = { message = no tech = tech_red_crystal_weapon_1 }	
			}			
			if = { 
				limit = { 
					AND = {
						has_technology = "tech_crystal_armor_2"
						has_global_flag = "ex_components_active_active"					
						NOT = { has_technology = tech_yellow_crystal_weapon_1 }						
					}	
				}				
				give_technology = { message = no tech = tech_yellow_crystal_weapon_1 }	
			}						
			if = { 
				limit = { 
					AND = {
						has_technology = "tech_crystal_armor_1"
						has_global_flag = "ex_components_active_active"					
						NOT = { has_technology = tech_green_crystal_weapon_1 }						
					}	
				}				
				give_technology = { message = no tech = tech_green_crystal_weapon_1 }	
			}				
			if = { 
				limit = { 
					AND = {
						has_technology = "tech_crystal_armor_1"
						has_global_flag = "ex_components_active_active"					
						NOT = { has_technology = tech_blue_crystal_weapon_1 }						
					}	
				}				
				give_technology = { message = no tech = tech_blue_crystal_weapon_1 }	
			}		
			if = { 
				limit = { 
					AND = {
						has_technology = "tech_crystal_armor_2"
						NOR = { 
							has_technology = "tech_crystal_armor_1"
							has_global_flag = "ex_components_active_active"
						}
					}	
				}				
				give_technology = { message = no tech = tech_crystal_armor_1 }	
			}
			if = { 
				limit = { 
					AND = {
						has_global_flag = "ex_components_active_active"
						has_technology = tech_blue_crystal_weapon_1
						has_technology = tech_green_crystal_weapon_1
						has_technology = tech_yellow_crystal_weapon_1
						has_technology = tech_red_crystal_weapon_1					
					}	
				}				
				set_country_flag = all_crystal_ex
			}			
			if = { 
				limit = { 
					AND = {
						has_global_flag = "ex_components_active_active"
						has_technology = "tech_crystal_armor_2"
						has_technology = "tech_crystal_armor_1"
					}	
				}				
				set_country_flag = all_crystal_armor_vanilla
			}					
		}
	}
}	
	
###### Afterburners

country_event = {
	id = ex_technology_events.9
	hide_window = yes
	is_triggered_only = yes

	immediate = {
		if = {
			limit = { 
				OR = {
					AND = { 
						has_global_flag = "ex_components_active_active"
						NOT = { has_country_flag = all_afterburners_ex }
					}	
					NOR = {
						has_global_flag = "ex_components_active_active"
						has_country_flag = all_afterburners_vanilla
					}					
				}
			}	
			if = { 
				limit = { 
					AND = {
						has_global_flag = "ex_components_active_active"
						has_technology = "tech_afterburners_3"
						NOT = { has_technology = "tech_afterburners_2" }
					}	
				}				
				give_technology = { message = no tech = tech_afterburners_2 }	
			}							
			if = { 
				limit = { 
					AND = {
						has_technology = "tech_afterburners_2"
						NOT = { has_technology = "tech_afterburners_1" }
					}	
				}				
				give_technology = { message = no tech = tech_afterburners_1 }	
			}
			if = { 
				limit = { 
					AND = {
						has_global_flag = "ex_components_active_active"
						has_technology = "tech_afterburners_3"
						has_technology = "tech_afterburners_2"
						has_technology = "tech_afterburners_1"						
					}	
				}				
				set_country_flag = all_afterburners_ex
			}			
			if = { 
				limit = { 
					AND = {
						NOT = { has_global_flag = "ex_components_active_active" }					
						has_technology = "tech_afterburners_2"
						has_technology = "tech_afterburners_1"						
					}	
				}				
				set_country_flag = all_afterburners_vanilla
			}					
		}
	}
}	

## Shield Recharger
country_event = {
	id = ex_technology_events.1001
	hide_window = yes
	is_triggered_only = yes

	immediate = {
		if = {
			limit = { NOT = { has_country_flag = all_shield_rechargers } }	
			if = { 
				limit = { 
					AND = {
						has_technology = "nhsc_tech_advshieldcapacitors"
						NOT = { has_technology = "tech_shield_rechargers_1" }
					}	
				}				
				give_technology = { message = no tech = tech_shield_rechargers_1 }	
			}							
			if = { 
				limit = { 
					has_technology = "nhsc_tech_advshieldcapacitors"
					has_technology = "tech_shield_rechargers_1"						
				}	
				set_country_flag = all_shield_rechargers
			}					
		}
	}
}	

##Vanilla Reactors
country_event = {
	id = ex_technology_events.1301
	hide_window = yes
	is_triggered_only = yes

	immediate = {
		if = {
			limit = { 
				NOT = { has_country_flag =  all_vanilla_reactors }					
			}	
			##Vanilla Reactors		
			if = { 
				limit = { 
					AND = {
						has_technology = "tech_zero_point_power"
						NOT = { has_technology = "tech_antimatter_power" }
					}	
				}				
				give_technology = { message = no tech = tech_antimatter_power }	
			}			
			if = { 
				limit = { 
					AND = {
						has_technology = "tech_antimatter_power"
						NOT = { has_technology = "tech_cold_fusion_power" }
					}	
				}				
				give_technology = { message = no tech = tech_cold_fusion_power }	
			}							
			if = { 
				limit = { 
					AND = {
						has_technology = "tech_cold_fusion_power"
						NOT = { has_technology = "tech_fusion_power" }
					}	
				}				
				give_technology = { message = no tech = tech_fusion_power }	
			}															
			if = { 
				limit = { 
					AND = {
						has_technology = tech_fusion_power
						has_technology = tech_cold_fusion_power
						has_technology = tech_antimatter_power
						has_technology = tech_zero_point_power
					}	
				}				
				set_country_flag = all_vanilla_reactors
			}			
		}
	}
}

##Mod & Enigmatic Reactors
country_event = {
	id = ex_technology_events.1302
	hide_window = yes
	is_triggered_only = yes

	immediate = {
		if = {
			limit = { 
				NOT = { has_country_flag =  all_special_reactors }					
			}
			if = { 
				limit = { 
					AND = {
						has_technology = "nhsc_tech_enigmatic_power_2"
						NOT = { has_technology = "tech_enigmatic_power_core" }
					}	
				}				
				give_technology = { message = no tech = tech_enigmatic_power_core }	
			}
			if = { 
				limit = { 
					AND = {
						has_technology = "tech_enigmatic_power_core"
						NOT = { has_technology = "tech_zero_point_power" }
					}	
				}				
				give_technology = { message = no tech = tech_zero_point_power }	
				country_event = { id = ex_technology_events.1301 }
			}	
			##Mod Reactors
			if = { 
				limit = { 
					AND = {
						has_technology = "nhsc_tech_enigmatic_power_2"
						NOT = { has_technology = "nhsc_tech_advzeropointreactor_3" }
					}	
				}				
				give_technology = { message = no tech = nhsc_tech_advzeropointreactor_3 }	
			}
			if = { 
				limit = { 
					AND = {
						has_technology = "nhsc_tech_advzeropointreactor_3"
						NOT = { has_technology = "nhsc_tech_advzeropointreactor_2" }
					}	
				}				
				give_technology = { message = no tech = nhsc_tech_advzeropointreactor_2 }	
			}	
			if = { 
				limit = { 
					AND = {
						has_technology = "nhsc_tech_advzeropointreactor_2"
						NOT = { has_technology = "nhsc_tech_advzeropointreactor_1" }
					}	
				}				
				give_technology = { message = no tech = nhsc_tech_advzeropointreactor_1 }	
			}								
			if = { 
				limit = { 
					AND = {
						has_technology = "nhsc_tech_advzeropointreactor_1"
						NOT = { has_technology = "tech_zero_point_power" }
					}	
				}				
				give_technology = { message = no tech = tech_zero_point_power }	
				country_event = { id = ex_technology_events.1301 }
			}															
			if = { 
				limit = { 
					AND = {
						has_technology = nhsc_tech_advzeropointreactor_1
						has_technology = nhsc_tech_advzeropointreactor_2
						has_technology = nhsc_tech_advzeropointreactor_3
						has_technology = tech_enigmatic_power_core
						has_technology = nhsc_tech_enigmatic_power_2
					}	
				}				
				set_country_flag = all_special_reactors
			}			
		}
	}
}	

#### WEAPONS

## Lasers
country_event = {
	id = ex_technology_events.1401
	hide_window = yes
	is_triggered_only = yes

	immediate = {
		if = {
			limit = { NOT = { has_country_flag = all_lasers_researched } }
			if = { 
				limit = { 
					AND = {
						has_technology = "nhsc_tech_laser_7"
						NOT = { has_technology = "nhsc_tech_laser_6" }
					}	
				}				
				give_technology = { message = no tech = nhsc_tech_laser_6 }	
			}
			if = { 
				limit = { 
					AND = {
						has_technology = "nhsc_tech_laser_6"
						NOT = { has_technology = "tech_lasers_5" }
					}	
				}				
				give_technology = { message = no tech = tech_lasers_5 }	
			}
			if = { 
				limit = { 
					AND = {
						has_technology = "tech_lasers_5"
						NOT = { has_technology = "tech_lasers_4" }
					}	
				}				
				give_technology = { message = no tech = tech_lasers_4 }	
			}	
			if = { 
				limit = { 
					AND = {
						has_technology = "tech_lasers_4"
						NOT = { has_technology = "tech_lasers_3" }
					}	
				}				
				give_technology = { message = no tech = tech_lasers_3 }	
			}				
			if = { 
				limit = { 
					AND = {
						has_technology = "tech_lasers_3"
						NOT = { has_technology = "tech_lasers_2" }
					}	
				}				
				give_technology = { message = no tech = tech_lasers_2 }	
			}							
			if = { 
				limit = { 
					AND = {
						has_technology = "tech_lasers_2"
						NOT = { has_technology = "tech_lasers_1" }
					}	
				}				
				give_technology = { message = no tech = tech_lasers_1 }	
			}
			if = { 
				limit = { 
					AND = {
						has_technology = "nhsc_tech_laser_7"
						has_technology = "nhsc_tech_laser_6"
						has_technology = "tech_lasers_5"
						has_technology = "tech_lasers_4"
						has_technology = "tech_lasers_3"
						has_technology = "tech_lasers_2"
						has_technology = "tech_lasers_1"						
					}	
				}				
				set_country_flag = all_lasers_researched
			}			
		}
	}
}	

## Mass Drivers
country_event = {
	id = ex_technology_events.1501
	hide_window = yes
	is_triggered_only = yes

	immediate = {
		if = {
			limit = { NOT = { has_country_flag = all_mass_drivers_researched } }
			if = { 
				limit = { 
					AND = {
						has_technology = "nhsc_tech_mass_driver_7"
						NOT = { has_technology = "nhsc_tech_mass_driver_6" }
					}	
				}				
				give_technology = { message = no tech = nhsc_tech_mass_driver_6 }	
			}
			if = { 
				limit = { 
					AND = {
						has_technology = "nhsc_tech_mass_driver_6"
						NOT = { has_technology = "tech_mass_drivers_5" }
					}	
				}				
				give_technology = { message = no tech = tech_mass_drivers_5 }	
			}
			if = { 
				limit = { 
					AND = {
						has_technology = "tech_mass_drivers_5"
						NOT = { has_technology = "tech_mass_drivers_4" }
					}	
				}				
				give_technology = { message = no tech = tech_mass_drivers_4 }	
			}	
			if = { 
				limit = { 
					AND = {
						has_technology = "tech_mass_drivers_4"
						NOT = { has_technology = "tech_mass_drivers_3" }
					}	
				}				
				give_technology = { message = no tech = tech_mass_drivers_3 }	
			}				
			if = { 
				limit = { 
					AND = {
						has_technology = "tech_mass_drivers_3"
						NOT = { has_technology = "tech_mass_drivers_2" }
					}	
				}				
				give_technology = { message = no tech = tech_mass_drivers_2 }	
			}							
			if = { 
				limit = { 
					AND = {
						has_technology = "tech_mass_drivers_2"
						NOT = { has_technology = "tech_mass_drivers_1" }
					}	
				}				
				give_technology = { message = no tech = tech_mass_drivers_1 }	
			}
			if = { 
				limit = { 
					AND = {
						has_technology = "nhsc_tech_mass_driver_7"
						has_technology = "nhsc_tech_mass_driver_6"
						has_technology = "tech_mass_drivers_5"
						has_technology = "tech_mass_drivers_4"
						has_technology = "tech_mass_drivers_3"
						has_technology = "tech_mass_drivers_2"
						has_technology = "tech_mass_drivers_1"						
					}	
				}				
				set_country_flag = all_mass_drivers_researched
			}			
		}
	}
}	

## Missiles
country_event = {
	id = ex_technology_events.1601
	hide_window = yes
	is_triggered_only = yes

	immediate = {
		if = {
			limit = { NOT = { has_country_flag = all_missiles_researched } }
			if = { 
				limit = { 
					AND = {
						has_technology = "nhsc_tech_missile_7"
						NOT = { has_technology = "nhsc_tech_missile_6" }
					}	
				}				
				give_technology = { message = no tech = nhsc_tech_missile_6 }	
			}
			if = { 
				limit = { 
					AND = {
						has_technology = "nhsc_tech_missile_6"
						NOT = { has_technology = "tech_missiles_5" }
					}	
				}				
				give_technology = { message = no tech = tech_missiles_5 }	
			}
			if = { 
				limit = { 
					AND = {
						has_technology = "tech_missiles_5"
						NOT = { has_technology = "tech_missiles_4" }
					}	
				}				
				give_technology = { message = no tech = tech_missiles_4 }	
			}	
			if = { 
				limit = { 
					AND = {
						has_technology = "tech_missiles_4"
						NOT = { has_technology = "tech_missiles_3" }
					}	
				}				
				give_technology = { message = no tech = tech_missiles_3 }	
			}				
			if = { 
				limit = { 
					AND = {
						has_technology = "tech_missiles_3"
						NOT = { has_technology = "tech_missiles_2" }
					}	
				}				
					give_technology = { message = no tech = tech_missiles_2 }	
			}							
			if = { 
				limit = { 
					AND = {
						has_technology = "tech_missiles_2"
						NOT = { has_technology = "tech_missiles_1" }
					}	
				}				
				give_technology = { message = no tech = tech_missiles_1 }	
			}
			if = { 
				limit = { 
					AND = {
						has_technology = "nhsc_tech_missile_7"
						has_technology = "nhsc_tech_missile_6"
						has_technology = "tech_missiles_5"
						has_technology = "tech_missiles_4"
						has_technology = "tech_missiles_3"
						has_technology = "tech_missiles_2"
						has_technology = "tech_missiles_1"						
					}	
				}				
				set_country_flag = all_missiles_researched
			}			
		}
	}
}	

## Kinetic Artillery
country_event = {
	id = ex_technology_events.1701
	hide_window = yes
	is_triggered_only = yes

	immediate = {
		if = {
			limit = { NOT = { has_country_flag = all_kinetic_artillery_researched } }
			if = { 
				limit = { 
					AND = {
						has_technology = "nhsc_tech_kinetic_artillery_3"
						NOT = { has_technology = "tech_kinetic_artillery_2" }
					}	
				}				
				give_technology = { message = no tech = tech_kinetic_artillery_2 }	
			}
			if = { 
				limit = { 
					AND = {
						has_technology = "tech_kinetic_artillery_2"
						NOT = { has_technology = "tech_kinetic_artillery_1" }
					}	
				}				
				give_technology = { message = no tech = tech_kinetic_artillery_1 }	
			}
			if = { 
				limit = { 
					AND = {
						has_technology = "nhsc_tech_kinetic_artillery_3"
						has_technology = "tech_kinetic_artillery_2"
						has_technology = "tech_kinetic_artillery_1"					
					}	
				}				
				set_country_flag = all_kinetic_artillery_researched
			}			
		}
	}
}	

## Flak
country_event = {
	id = ex_technology_events.1801
	hide_window = yes
	is_triggered_only = yes

	immediate = {
		if = {
		limit = { NOT = { has_country_flag = all_flak_researched } }
			if = { 
				limit = { 
					AND = {
						has_technology = "nhsc_tech_flak_battery_3"
						NOT = { has_technology = "tech_flak_batteries_2" }
					}	
				}				
				give_technology = { message = no tech = tech_flak_batteries_2 }	
			}
			if = { 
				limit = { 
					AND = {
						has_technology = "tech_flak_batteries_2"
						NOT = { has_technology = "tech_flak_batteries_1" }
					}	
				}				
				give_technology = { message = no tech = tech_flak_batteries_1 }	
			}
			if = { 
				limit = { 
					AND = {
						has_technology = "nhsc_tech_flak_battery_3"
						has_technology = "tech_flak_batteries_2"
						has_technology = "tech_flak_batteries_1"
					}	
				}				
				set_country_flag = all_flak_researched
			}								
		}
	}
}	

## Swarmer Missiles
country_event = {
	id = ex_technology_events.1901
	hide_window = yes
	is_triggered_only = yes

	immediate = {
		if = {
			limit = { NOT = { has_country_flag = all_swarmers_researched } }
			if = { 
				limit = { 
					AND = {
						has_technology = "nhsc_tech_swarmermissiles_3"
						NOT = { has_technology = "tech_swarmer_missiles_2" }
					}	
				}				
				give_technology = { message = no tech = tech_swarmer_missiles_2 }	
			}
			if = { 
				limit = { 
					AND = {
						has_technology = "tech_swarmer_missiles_2"
						NOT = { has_technology = "tech_swarmer_missiles_1" }
					}	
				}				
				give_technology = { message = no tech = tech_swarmer_missiles_1 }	
			}
			if = { 
				limit = { 
					AND = {
						has_technology = "nhsc_tech_swarmermissiles_3"
						has_technology = "tech_swarmer_missiles_2"
						has_technology = "tech_swarmer_missiles_1"
					}	
				}				
				set_country_flag = all_swarmers_researched
			}								
		}
	}
}	

## Energy Torpedoes
country_event = {
	id = ex_technology_events.2001
	hide_window = yes
	is_triggered_only = yes

	immediate = {
		if = {
			limit = { 
				NOT = {	has_country_flag = all_etorpedo_researched }						
			}	
			if = { 
				limit = { 
					AND = {
						has_technology = "nhsc_tech_energy_torpedo_3"
						NOT = { has_technology = "tech_energy_torpedoes_2" }
					}	
				}				
				give_technology = { message = no tech = tech_energy_torpedoes_2 }	
			}
			if = { 
				limit = { 
					AND = {
						has_technology = "tech_energy_torpedoes_2"
						NOT = { has_technology = "tech_energy_torpedoes_1" }
					}	
				}				
				give_technology = { message = no tech = tech_energy_torpedoes_1 }	
			}
			if = { 
				limit = { 
					AND = {
						has_technology = "nhsc_tech_energy_torpedo_3"
						has_technology = "tech_energy_torpedoes_2"
						has_technology = "tech_energy_torpedoes_1"
					}	
				}				
				set_country_flag = all_etorpedo_researched
			}			
		}
	}
}	

## Energy Lance
country_event = {
	id = ex_technology_events.2101
	hide_window = yes
	is_triggered_only = yes

	immediate = {
		if = {
			limit = { NOT = { has_country_flag = all_energy_lance_researched } }
			if = { 
				limit = { 
					AND = {
						has_technology = "nhsc_tech_energy_lance_3"
						NOT = { has_technology = "tech_energy_lance_2" }
					}	
				}				
				give_technology = { message = no tech = tech_energy_lance_2 }	
			}
			if = { 
				limit = { 
					AND = {
						has_technology = "tech_energy_lance_2"
						NOT = { has_technology = "tech_energy_lance_1" }
					}	
				}				
				give_technology = { message = no tech = tech_energy_lance_1 }	
			}
			if = { 
				limit = { 
					AND = {
						has_technology = "nhsc_tech_energy_lance_3"
						has_technology = "tech_energy_lance_2"
						has_technology = "tech_energy_lance_1"					
					}	
				}				
				set_country_flag = all_energy_lance_researched
			}			
		}
	}
}	

## Arc Emitter
country_event = {
	id = ex_technology_events.2201
	hide_window = yes
	is_triggered_only = yes

	immediate = {
		if = {
			limit = { NOT = { has_country_flag = all_arc_emitters_researched } }
			if = { 
				limit = { 
					AND = {
						has_technology = "nhsc_tech_arc_emitter_3"
						NOT = { has_technology = "tech_arc_emitter_2" }
					}	
				}				
				give_technology = { message = no tech = tech_arc_emitter_2 }	
			}
			if = { 
				limit = { 
					AND = {
						has_technology = "tech_arc_emitter_2"
						NOT = { has_technology = "tech_arc_emitter_1" }
					}	
				}				
				give_technology = { message = no tech = tech_arc_emitter_1 }	
			}
			if = { 
				limit = { 
					AND = {
						has_technology = "nhsc_tech_arc_emitter_3"
						has_technology = "tech_arc_emitter_2"
						has_technology = "tech_arc_emitter_1"					
					}	
				}				
				set_country_flag = all_arc_emitters_researched
			}			
		}
	}
}	

## Mass Accelerators
country_event = {
	id = ex_technology_events.2301
	hide_window = yes
	is_triggered_only = yes

	immediate = {
		if = {
			limit = { NOT = { has_country_flag = all_mass_accelerators_researched } }
			if = { 
				limit = { 
					AND = {
						has_technology = "nhsc_tech_mass_accelerator_3"
						NOT = { has_technology = "tech_mass_accelerator_2" }
					}	
				}				
				give_technology = { message = no tech = tech_mass_accelerator_2 }	
			}
			if = { 
				limit = { 
					AND = {
						has_technology = "tech_mass_accelerator_2"
						NOT = { has_technology = "tech_mass_accelerator_1" }
					}	
				}				
				give_technology = { message = no tech = tech_mass_accelerator_1 }	
			}
			if = { 
				limit = { 
					AND = {
						has_technology = "nhsc_tech_mass_accelerator_3"
						has_technology = "tech_mass_accelerator_2"
						has_technology = "tech_mass_accelerator_1"					
					}	
				}				
				set_country_flag = all_mass_accelerators_researched
			}			
		}
	}
}	

## Ex Missile
country_event = {
	id = ex_technology_events.2401
	hide_window = yes
	is_triggered_only = yes

	immediate = {
		if = {
			limit = { NOT = { has_country_flag = all_exmissile_researched } }
			if = { 
				limit = { 
					AND = {
						has_technology = "nhsc_tech_xmissile2"
						NOT = { has_technology = "nhsc_tech_xmissile1" }
					}	
				}				
				give_technology = { message = no tech = nhsc_tech_xmissile1 }	
			}
			if = { 
				limit = { 
					AND = {
						has_technology = "nhsc_tech_xmissile2"
						has_technology = "nhsc_tech_xmissile1"				
					}	
				}				
				set_country_flag = all_exmissile_researched
			}			
		}
	}
}	

## Autocannons
country_event = {
	id = ex_technology_events.2601
	hide_window = yes
	is_triggered_only = yes

	immediate = {
		if = {
			limit = { NOT = { has_country_flag = all_autocannons_researched } }	
			if = { 
				limit = { 
					AND = {
						has_technology = "nhsc_tech_autocannon_4"
						NOT = { has_technology = "tech_autocannons_3" }
					}	
				}				
				give_technology = { message = no tech = tech_autocannons_3 }	
			}
			if = { 
				limit = { 
					AND = {
						has_technology = "tech_autocannons_3"
						NOT = { has_technology = "tech_autocannons_2" }
					}	
				}				
				give_technology = { message = no tech = tech_autocannons_2 }	
			}
			if = { 
				limit = { 
					AND = {
						has_technology = "tech_autocannons_2"
						NOT = { has_technology = "tech_autocannons_1" }
					}	
				}				
				give_technology = { message = no tech = tech_autocannons_1 }	
			}
			if = { 
				limit = { 
					AND = {
						has_technology = "nhsc_tech_autocannon_4"
						has_technology = "tech_autocannons_3"
						has_technology = "tech_autocannons_2"
						has_technology = "tech_autocannons_1"
					}	
				}				
				set_country_flag = all_autocannons_researched
			}		
			
		}
	}
}	

## Torpedoes
country_event = {
	id = ex_technology_events.2701
	hide_window = yes
	is_triggered_only = yes

	immediate = {
		if = {
			limit = { NOT = { has_country_flag = all_torpedoes_researched } }	
			if = { 
				limit = { 
					AND = {
						has_technology = "nhsc_tech_torpedoes_4"
						NOT = { has_technology = "tech_torpedoes_3" }
					}	
				}				
				give_technology = { message = no tech = tech_torpedoes_3 }	
			}
			if = { 
				limit = { 
					AND = {
						has_technology = "tech_torpedoes_3"
						NOT = { has_technology = "tech_torpedoes_2" }
					}	
				}				
				give_technology = { message = no tech = tech_torpedoes_2 }	
			}
			if = { 
				limit = { 
					AND = {
						has_technology = "tech_torpedoes_2"
						NOT = { has_technology = "tech_torpedoes_1" }
					}	
				}				
				give_technology = { message = no tech = tech_torpedoes_1 }	
			}
			if = { 
				limit = { 
					AND = {
						has_technology = "nhsc_tech_torpedoes_4"
						has_technology = "tech_torpedoes_3"
						has_technology = "tech_torpedoes_2"
						has_technology = "tech_torpedoes_1"
					}	
				}				
				set_country_flag = all_torpedoes_researched
			}			
		}
	}
}	

## Strike Craft
country_event = {
	id = ex_technology_events.2801
	hide_window = yes
	is_triggered_only = yes

	immediate = {
		if = {
			limit = { 
				NOT = {	has_country_flag = all_strike_craft }						
			}	
			if = { 
				limit = { 
					AND = {
						has_technology = "nhsc_tech_siegebreaker_strikecrafts"
						NOT = { has_technology = "nhsc_tech_tactical_strikecrafts" }
					}	
				}				
				give_technology = { message = no tech = nhsc_tech_tactical_strikecrafts }	
			}
			if = { 
				limit = { 
					AND = {
						has_technology = "nhsc_tech_tactical_strikecrafts"
						NOT = { has_technology = "tech_strike_craft_3" }
					}	
				}				
				give_technology = { message = no tech = tech_strike_craft_3 }	
			}
			if = { 
				limit = { 
					AND = {
						has_technology = "tech_strike_craft_3"
						NOT = { has_technology = "tech_strike_craft_2" }
					}	
				}				
				give_technology = { message = no tech = tech_strike_craft_2 }	
			}
			if = { 
				limit = { 
					AND = {
						has_technology = "tech_strike_craft_2"
						NOT = { has_technology = "tech_strike_craft_1" }
					}	
				}				
				give_technology = { message = no tech = tech_strike_craft_1 }	
			}
			if = { 
				limit = { 
					AND = {
						OR = {
							AND = {
								has_authority = auth_machine_intelligence
								has_technology = "nhsc_tech_siegebreaker_strikecrafts"
							}
							NOT = { has_authority = auth_machine_intelligence }
						}
						has_technology = "nhsc_tech_tactical_strikecrafts"
						has_technology = "tech_strike_craft_3"
						has_technology = "tech_strike_craft_2"
						has_technology = "tech_strike_craft_1"
					}	
				}				
				set_country_flag = all_strike_craft
			}			
		}
	}
}	

## Plasma Weapons
country_event = {
	id = ex_technology_events.2901
	hide_window = yes
	is_triggered_only = yes

	immediate = {
		if = {
			limit = { 
				NOT = {	has_country_flag = all_plasma_researched }						
			}	
			if = { 
				limit = { 
					AND = {
						has_technology = "nhsc_tech_plasma_4"
						NOT = { has_technology = "tech_plasma_3" }
					}	
				}				
				give_technology = { message = no tech = tech_plasma_3 }	
			}
			if = { 
				limit = { 
					AND = {
						has_technology = "tech_plasma_3"
						NOT = { has_technology = "tech_plasma_2" }
					}	
				}				
				give_technology = { message = no tech = tech_plasma_2 }	
			}
			if = { 
				limit = { 
					AND = {
						has_technology = "tech_plasma_2"
						NOT = { has_technology = "tech_plasma_1" }
					}	
				}				
				give_technology = { message = no tech = tech_plasma_1 }	
			}
			if = { 
				limit = { 
					AND = {
						has_technology = "nhsc_tech_plasma_4"
						has_technology = "tech_plasma_3"
						has_technology = "tech_plasma_2"
						has_technology = "tech_plasma_1"
					}	
				}				
				set_country_flag = all_plasma_researched
			}			
		}
	}
}	

## Disruptor Weapons
country_event = {
	id = ex_technology_events.3001
	hide_window = yes
	is_triggered_only = yes

	immediate = {
		if = {
			limit = { NOT = { has_country_flag = all_disruptors_researched } }	
			if = { 
				limit = { 
					AND = {
						has_technology = "nhsc_tech_disruptors_4"
						NOT = { has_technology = "tech_disruptors_3" }
					}	
				}				
				give_technology = { message = no tech = tech_disruptors_3 }	
			}
			if = { 
				limit = { 
					AND = {
						has_technology = "tech_disruptors_3"
						NOT = { has_technology = "tech_disruptors_2" }
					}	
				}				
				give_technology = { message = no tech = tech_disruptors_2 }	
			}
			if = { 
				limit = { 
					AND = {
						has_technology = "tech_disruptors_2"
						NOT = { has_technology = "tech_disruptors_1" }
					}	
				}				
				give_technology = { message = no tech = tech_disruptors_1 }	
			}
			if = { 
				limit = { 
					AND = {
						has_technology = "nhsc_tech_disruptors_4"
						has_technology = "tech_disruptors_3"
						has_technology = "tech_disruptors_2"
						has_technology = "tech_disruptors_1"
					}	
				}				
				set_country_flag = all_disruptors_researched
			}			
		}
	}
}	

## Point Defense
country_event = {
	id = ex_technology_events.3101
	hide_window = yes
	is_triggered_only = yes

	immediate = {
		if = {
			limit = { NOT = { has_country_flag = all_pd_tracking_researched } }	
			if = { 
				limit = { 
					AND = {
						has_technology = "nhsc_tech_lightstorm_pd"
						NOT = { has_technology = "nhsc_tech_pd_tracking_4" }
					}	
				}				
				give_technology = { message = no tech = nhsc_tech_pd_tracking_4 }	
			}
			if = { 
				limit = { 
					AND = {
						has_technology = "nhsc_tech_lightstorm_pd"
						NOT = { has_technology = "nhsc_tech_laser_6" }
					}	
				}				
				give_technology = { message = no tech = nhsc_tech_laser_6 }
				country_event = { id = ex_technology_events.1401 }
			}
			if = { 
				limit = { 
					AND = {
						has_technology = "nhsc_tech_pd_tracking_4"
						NOT = { has_technology = "nhsc_tech_pd_tracking_4" }
					}	
				}				
				give_technology = { message = no tech = tech_pd_tracking_3 }	
			}
			if = { 
				limit = { 
					AND = {
						has_technology = "tech_pd_tracking_3"
						NOT = { has_technology = "tech_pd_tracking_2" }
					}	
				}				
				give_technology = { message = no tech = tech_pd_tracking_2 }	
			}
			if = { 
				limit = { 
					AND = {
						has_technology = "tech_pd_tracking_2"
						NOT = { has_technology = "tech_pd_tracking_1" }
					}	
				}				
				give_technology = { message = no tech = tech_pd_tracking_1 }	
			}
			if = { 
				limit = { 
					AND = {
						has_technology = "nhsc_tech_lightstorm_pd"
						has_technology = "nhsc_tech_pd_tracking_4"
						has_technology = "tech_pd_tracking_3"
						has_technology = "tech_pd_tracking_2"
						has_technology = "tech_pd_tracking_1"
					}	
				}				
				set_country_flag = all_pd_tracking_researched
			}			
		}
	}
}	

## Special Weapons
country_event = {
	id = ex_technology_events.3201
	hide_window = yes
	is_triggered_only = yes

	immediate = {
		if = {
			limit = { NOT = { has_country_flag = all_special_researched } }	
			#Plasma Missiles
			if = { 
				limit = { 
					AND = {
						has_technology = "nhsc_tech_plasma_missiles_2"
						NOT = { has_technology = "nhsc_tech_plasma_missiles_1" }
					}	
				}				
				give_technology = { message = no tech = nhsc_tech_plasma_missiles_1 }	
			}
			if = { 
				limit = { 
					AND = {
						has_technology = "nhsc_tech_plasma_missiles_2"
						NOT = { has_technology = "nhsc_tech_plasma_4" }
					}	
				}				
				give_technology = { message = no tech = nhsc_tech_plasma_4 }
				country_event = { id = ex_technology_events.2901 }
			}
			if = { 
				limit = { 
					AND = {
						has_technology = "nhsc_tech_plasma_missiles_1"
						NOT = { has_technology = "tech_missiles_5" }
					}	
				}				
				give_technology = { message = no tech = tech_missiles_5 }
				country_event = { id = ex_technology_events.1601 }
			}
			if = { 
				limit = { 
					AND = {
						has_technology = "nhsc_tech_plasma_missiles_1"
						NOT = { has_technology = "tech_plasma_3" }
					}	
				}				
				give_technology = { message = no tech = tech_plasma_3 }
				country_event = { id = ex_technology_events.2901 }
			}
			#Nanite Weapons
			if = { 
				limit = { 
					AND = {
						has_technology = "nhsc_tech_torpedo_nano"
						NOT = { has_technology = "nhsc_tech_nano_cannon" }
					}	
				}				
				give_technology = { message = no tech = nhsc_tech_nano_cannon }	
			}
			if = { 
				limit = { 
					AND = {
						has_technology = "nhsc_tech_torpedo_nano"
						NOT = { has_technology = "nhsc_tech_torpedoes_4" }
					}	
				}				
				give_technology = { message = no tech = nhsc_tech_torpedoes_4 }	
				country_event = { id = ex_technology_events.2701 }	
			}
			#Psionic Weapons
						if = { 
				limit = { 
					AND = {
						has_technology = "nhsc_tech_psilance"
						NOT = { has_technology = "nhsc_tech_psicannon" }
					}	
				}				
				give_technology = { message = no tech = nhsc_tech_psicannon }		
			}
			if = { 
				limit = { 
					AND = {
						has_technology = "nhsc_tech_plasma_missiles_2"
						has_technology = "nhsc_tech_plasma_missiles_1"
						has_technology = "nhsc_tech_torpedo_nano"
						has_technology = "nhsc_tech_nano_cannon"
						has_technology = "nhsc_tech_psilance"
						has_technology = "nhsc_tech_psicannon"
					}	
				}				
				set_country_flag = all_special_researched
			}			
		}
	}
}	